(['C:\\Users\\Student\\Desktop\\Ivan_Z\\Rubik\\GitPush\\cubenew.py'],
 ['C:\\Users\\Student\\Desktop\\Ivan_Z\\Rubik\\GitPush',
  'C:\\Users\\Student\\Desktop\\Ivan_Z\\Rubik\\GitPush'],
 ['codecs'],
 ['C:\\Users\\Student\\AppData\\Local\\Programs\\Python\\Python39\\lib\\site-packages\\_pyinstaller_hooks_contrib\\hooks\\stdhooks',
  'C:\\Users\\Student\\AppData\\Local\\Programs\\Python\\Python39\\lib\\site-packages\\_pyinstaller_hooks_contrib\\hooks\\stdhooks\\__pycache__',
  'C:\\Users\\Student\\AppData\\Local\\Programs\\Python\\Python39\\lib\\site-packages\\_pyinstaller_hooks_contrib\\hooks\\rthooks',
  'C:\\Users\\Student\\AppData\\Local\\Programs\\Python\\Python39\\lib\\site-packages\\_pyinstaller_hooks_contrib\\hooks\\rthooks\\__pycache__',
  'C:\\Users\\Student\\AppData\\Local\\Programs\\Python\\Python39\\lib\\site-packages\\_pyinstaller_hooks_contrib\\hooks'],
 {},
 [],
 [],
 False,
 False,
 False,
 '3.9.7 (tags/v3.9.7:1016ef3, Aug 30 2021, 20:19:38) [MSC v.1929 64 bit '
 '(AMD64)]',
 [('pyi_rth_pkgutil',
   'C:\\Users\\Student\\AppData\\Local\\Programs\\Python\\Python39\\Lib\\site-packages\\PyInstaller\\hooks\\rthooks\\pyi_rth_pkgutil.py',
   'PYSOURCE'),
  ('pyi_rth_multiprocessing',
   'C:\\Users\\Student\\AppData\\Local\\Programs\\Python\\Python39\\Lib\\site-packages\\PyInstaller\\hooks\\rthooks\\pyi_rth_multiprocessing.py',
   'PYSOURCE'),
  ('pyi_rth_inspect',
   'C:\\Users\\Student\\AppData\\Local\\Programs\\Python\\Python39\\Lib\\site-packages\\PyInstaller\\hooks\\rthooks\\pyi_rth_inspect.py',
   'PYSOURCE'),
  ('pyi_rth_certifi',
   'C:\\Users\\Student\\AppData\\Local\\Programs\\Python\\Python39\\Lib\\site-packages\\_pyinstaller_hooks_contrib\\hooks\\rthooks\\pyi_rth_certifi.py',
   'PYSOURCE'),
  ('cubenew',
   'C:\\Users\\Student\\Desktop\\Ivan_Z\\Rubik\\GitPush\\cubenew.py',
   'PYSOURCE')],
 [('ssl',
   'C:\\Users\\Student\\AppData\\Local\\Programs\\Python\\Python39\\lib\\ssl.py',
   'PYMODULE'),
  ('calendar',
   'C:\\Users\\Student\\AppData\\Local\\Programs\\Python\\Python39\\lib\\calendar.py',
   'PYMODULE'),
  ('argparse',
   'C:\\Users\\Student\\AppData\\Local\\Programs\\Python\\Python39\\lib\\argparse.py',
   'PYMODULE'),
  ('textwrap',
   'C:\\Users\\Student\\AppData\\Local\\Programs\\Python\\Python39\\lib\\textwrap.py',
   'PYMODULE'),
  ('shutil',
   'C:\\Users\\Student\\AppData\\Local\\Programs\\Python\\Python39\\lib\\shutil.py',
   'PYMODULE'),
  ('zipfile',
   'C:\\Users\\Student\\AppData\\Local\\Programs\\Python\\Python39\\lib\\zipfile.py',
   'PYMODULE'),
  ('py_compile',
   'C:\\Users\\Student\\AppData\\Local\\Programs\\Python\\Python39\\lib\\py_compile.py',
   'PYMODULE'),
  ('ntpath',
   'C:\\Users\\Student\\AppData\\Local\\Programs\\Python\\Python39\\lib\\ntpath.py',
   'PYMODULE'),
  ('string',
   'C:\\Users\\Student\\AppData\\Local\\Programs\\Python\\Python39\\lib\\string.py',
   'PYMODULE'),
  ('genericpath',
   'C:\\Users\\Student\\AppData\\Local\\Programs\\Python\\Python39\\lib\\genericpath.py',
   'PYMODULE'),
  ('importlib.machinery',
   'C:\\Users\\Student\\AppData\\Local\\Programs\\Python\\Python39\\lib\\importlib\\machinery.py',
   'PYMODULE'),
  ('importlib',
   'C:\\Users\\Student\\AppData\\Local\\Programs\\Python\\Python39\\lib\\importlib\\__init__.py',
   'PYMODULE'),
  ('importlib._common',
   'C:\\Users\\Student\\AppData\\Local\\Programs\\Python\\Python39\\lib\\importlib\\_common.py',
   'PYMODULE'),
  ('tempfile',
   'C:\\Users\\Student\\AppData\\Local\\Programs\\Python\\Python39\\lib\\tempfile.py',
   'PYMODULE'),
  ('random',
   'C:\\Users\\Student\\AppData\\Local\\Programs\\Python\\Python39\\lib\\random.py',
   'PYMODULE'),
  ('statistics',
   'C:\\Users\\Student\\AppData\\Local\\Programs\\Python\\Python39\\lib\\statistics.py',
   'PYMODULE'),
  ('decimal',
   'C:\\Users\\Student\\AppData\\Local\\Programs\\Python\\Python39\\lib\\decimal.py',
   'PYMODULE'),
  ('_pydecimal',
   'C:\\Users\\Student\\AppData\\Local\\Programs\\Python\\Python39\\lib\\_pydecimal.py',
   'PYMODULE'),
  ('contextvars',
   'C:\\Users\\Student\\AppData\\Local\\Programs\\Python\\Python39\\lib\\contextvars.py',
   'PYMODULE'),
  ('fractions',
   'C:\\Users\\Student\\AppData\\Local\\Programs\\Python\\Python39\\lib\\fractions.py',
   'PYMODULE'),
  ('numbers',
   'C:\\Users\\Student\\AppData\\Local\\Programs\\Python\\Python39\\lib\\numbers.py',
   'PYMODULE'),
  ('hashlib',
   'C:\\Users\\Student\\AppData\\Local\\Programs\\Python\\Python39\\lib\\hashlib.py',
   'PYMODULE'),
  ('logging',
   'C:\\Users\\Student\\AppData\\Local\\Programs\\Python\\Python39\\lib\\logging\\__init__.py',
   'PYMODULE'),
  ('pickle',
   'C:\\Users\\Student\\AppData\\Local\\Programs\\Python\\Python39\\lib\\pickle.py',
   'PYMODULE'),
  ('pprint',
   'C:\\Users\\Student\\AppData\\Local\\Programs\\Python\\Python39\\lib\\pprint.py',
   'PYMODULE'),
  ('doctest',
   'C:\\Users\\Student\\AppData\\Local\\Programs\\Python\\Python39\\lib\\doctest.py',
   'PYMODULE'),
  ('unittest',
   'C:\\Users\\Student\\AppData\\Local\\Programs\\Python\\Python39\\lib\\unittest\\__init__.py',
   'PYMODULE'),
  ('unittest.async_case',
   'C:\\Users\\Student\\AppData\\Local\\Programs\\Python\\Python39\\lib\\unittest\\async_case.py',
   'PYMODULE'),
  ('asyncio',
   'C:\\Users\\Student\\AppData\\Local\\Programs\\Python\\Python39\\lib\\asyncio\\__init__.py',
   'PYMODULE'),
  ('asyncio.unix_events',
   'C:\\Users\\Student\\AppData\\Local\\Programs\\Python\\Python39\\lib\\asyncio\\unix_events.py',
   'PYMODULE'),
  ('asyncio.log',
   'C:\\Users\\Student\\AppData\\Local\\Programs\\Python\\Python39\\lib\\asyncio\\log.py',
   'PYMODULE'),
  ('subprocess',
   'C:\\Users\\Student\\AppData\\Local\\Programs\\Python\\Python39\\lib\\subprocess.py',
   'PYMODULE'),
  ('signal',
   'C:\\Users\\Student\\AppData\\Local\\Programs\\Python\\Python39\\lib\\signal.py',
   'PYMODULE'),
  ('selectors',
   'C:\\Users\\Student\\AppData\\Local\\Programs\\Python\\Python39\\lib\\selectors.py',
   'PYMODULE'),
  ('asyncio.windows_events',
   'C:\\Users\\Student\\AppData\\Local\\Programs\\Python\\Python39\\lib\\asyncio\\windows_events.py',
   'PYMODULE'),
  ('asyncio.windows_utils',
   'C:\\Users\\Student\\AppData\\Local\\Programs\\Python\\Python39\\lib\\asyncio\\windows_utils.py',
   'PYMODULE'),
  ('asyncio.selector_events',
   'C:\\Users\\Student\\AppData\\Local\\Programs\\Python\\Python39\\lib\\asyncio\\selector_events.py',
   'PYMODULE'),
  ('asyncio.proactor_events',
   'C:\\Users\\Student\\AppData\\Local\\Programs\\Python\\Python39\\lib\\asyncio\\proactor_events.py',
   'PYMODULE'),
  ('asyncio.base_subprocess',
   'C:\\Users\\Student\\AppData\\Local\\Programs\\Python\\Python39\\lib\\asyncio\\base_subprocess.py',
   'PYMODULE'),
  ('asyncio.threads',
   'C:\\Users\\Student\\AppData\\Local\\Programs\\Python\\Python39\\lib\\asyncio\\threads.py',
   'PYMODULE'),
  ('asyncio.subprocess',
   'C:\\Users\\Student\\AppData\\Local\\Programs\\Python\\Python39\\lib\\asyncio\\subprocess.py',
   'PYMODULE'),
  ('asyncio.streams',
   'C:\\Users\\Student\\AppData\\Local\\Programs\\Python\\Python39\\lib\\asyncio\\streams.py',
   'PYMODULE'),
  ('asyncio.queues',
   'C:\\Users\\Student\\AppData\\Local\\Programs\\Python\\Python39\\lib\\asyncio\\queues.py',
   'PYMODULE'),
  ('asyncio.runners',
   'C:\\Users\\Student\\AppData\\Local\\Programs\\Python\\Python39\\lib\\asyncio\\runners.py',
   'PYMODULE'),
  ('asyncio.events',
   'C:\\Users\\Student\\AppData\\Local\\Programs\\Python\\Python39\\lib\\asyncio\\events.py',
   'PYMODULE'),
  ('asyncio.base_events',
   'C:\\Users\\Student\\AppData\\Local\\Programs\\Python\\Python39\\lib\\asyncio\\base_events.py',
   'PYMODULE'),
  ('concurrent.futures',
   'C:\\Users\\Student\\AppData\\Local\\Programs\\Python\\Python39\\lib\\concurrent\\futures\\__init__.py',
   'PYMODULE'),
  ('concurrent.futures.thread',
   'C:\\Users\\Student\\AppData\\Local\\Programs\\Python\\Python39\\lib\\concurrent\\futures\\thread.py',
   'PYMODULE'),
  ('queue',
   'C:\\Users\\Student\\AppData\\Local\\Programs\\Python\\Python39\\lib\\queue.py',
   'PYMODULE'),
  ('concurrent.futures.process',
   'C:\\Users\\Student\\AppData\\Local\\Programs\\Python\\Python39\\lib\\concurrent\\futures\\process.py',
   'PYMODULE'),
  ('multiprocessing.queues',
   'C:\\Users\\Student\\AppData\\Local\\Programs\\Python\\Python39\\lib\\multiprocessing\\queues.py',
   'PYMODULE'),
  ('multiprocessing.synchronize',
   'C:\\Users\\Student\\AppData\\Local\\Programs\\Python\\Python39\\lib\\multiprocessing\\synchronize.py',
   'PYMODULE'),
  ('multiprocessing.heap',
   'C:\\Users\\Student\\AppData\\Local\\Programs\\Python\\Python39\\lib\\multiprocessing\\heap.py',
   'PYMODULE'),
  ('multiprocessing.resource_tracker',
   'C:\\Users\\Student\\AppData\\Local\\Programs\\Python\\Python39\\lib\\multiprocessing\\resource_tracker.py',
   'PYMODULE'),
  ('multiprocessing.spawn',
   'C:\\Users\\Student\\AppData\\Local\\Programs\\Python\\Python39\\lib\\multiprocessing\\spawn.py',
   'PYMODULE'),
  ('runpy',
   'C:\\Users\\Student\\AppData\\Local\\Programs\\Python\\Python39\\lib\\runpy.py',
   'PYMODULE'),
  ('pkgutil',
   'C:\\Users\\Student\\AppData\\Local\\Programs\\Python\\Python39\\lib\\pkgutil.py',
   'PYMODULE'),
  ('zipimport',
   'C:\\Users\\Student\\AppData\\Local\\Programs\\Python\\Python39\\lib\\zipimport.py',
   'PYMODULE'),
  ('importlib.abc',
   'C:\\Users\\Student\\AppData\\Local\\Programs\\Python\\Python39\\lib\\importlib\\abc.py',
   'PYMODULE'),
  ('typing',
   'C:\\Users\\Student\\AppData\\Local\\Programs\\Python\\Python39\\lib\\typing.py',
   'PYMODULE'),
  ('multiprocessing.process',
   'C:\\Users\\Student\\AppData\\Local\\Programs\\Python\\Python39\\lib\\multiprocessing\\process.py',
   'PYMODULE'),
  ('multiprocessing.util',
   'C:\\Users\\Student\\AppData\\Local\\Programs\\Python\\Python39\\lib\\multiprocessing\\util.py',
   'PYMODULE'),
  ('multiprocessing.forkserver',
   'C:\\Users\\Student\\AppData\\Local\\Programs\\Python\\Python39\\lib\\multiprocessing\\forkserver.py',
   'PYMODULE'),
  ('multiprocessing.context',
   'C:\\Users\\Student\\AppData\\Local\\Programs\\Python\\Python39\\lib\\multiprocessing\\context.py',
   'PYMODULE'),
  ('multiprocessing.popen_spawn_win32',
   'C:\\Users\\Student\\AppData\\Local\\Programs\\Python\\Python39\\lib\\multiprocessing\\popen_spawn_win32.py',
   'PYMODULE'),
  ('multiprocessing.popen_forkserver',
   'C:\\Users\\Student\\AppData\\Local\\Programs\\Python\\Python39\\lib\\multiprocessing\\popen_forkserver.py',
   'PYMODULE'),
  ('multiprocessing.popen_spawn_posix',
   'C:\\Users\\Student\\AppData\\Local\\Programs\\Python\\Python39\\lib\\multiprocessing\\popen_spawn_posix.py',
   'PYMODULE'),
  ('multiprocessing.popen_fork',
   'C:\\Users\\Student\\AppData\\Local\\Programs\\Python\\Python39\\lib\\multiprocessing\\popen_fork.py',
   'PYMODULE'),
  ('multiprocessing.sharedctypes',
   'C:\\Users\\Student\\AppData\\Local\\Programs\\Python\\Python39\\lib\\multiprocessing\\sharedctypes.py',
   'PYMODULE'),
  ('ctypes',
   'C:\\Users\\Student\\AppData\\Local\\Programs\\Python\\Python39\\lib\\ctypes\\__init__.py',
   'PYMODULE'),
  ('ctypes._endian',
   'C:\\Users\\Student\\AppData\\Local\\Programs\\Python\\Python39\\lib\\ctypes\\_endian.py',
   'PYMODULE'),
  ('multiprocessing.pool',
   'C:\\Users\\Student\\AppData\\Local\\Programs\\Python\\Python39\\lib\\multiprocessing\\pool.py',
   'PYMODULE'),
  ('multiprocessing.dummy',
   'C:\\Users\\Student\\AppData\\Local\\Programs\\Python\\Python39\\lib\\multiprocessing\\dummy\\__init__.py',
   'PYMODULE'),
  ('multiprocessing.dummy.connection',
   'C:\\Users\\Student\\AppData\\Local\\Programs\\Python\\Python39\\lib\\multiprocessing\\dummy\\connection.py',
   'PYMODULE'),
  ('multiprocessing.managers',
   'C:\\Users\\Student\\AppData\\Local\\Programs\\Python\\Python39\\lib\\multiprocessing\\managers.py',
   'PYMODULE'),
  ('multiprocessing.shared_memory',
   'C:\\Users\\Student\\AppData\\Local\\Programs\\Python\\Python39\\lib\\multiprocessing\\shared_memory.py',
   'PYMODULE'),
  ('secrets',
   'C:\\Users\\Student\\AppData\\Local\\Programs\\Python\\Python39\\lib\\secrets.py',
   'PYMODULE'),
  ('hmac',
   'C:\\Users\\Student\\AppData\\Local\\Programs\\Python\\Python39\\lib\\hmac.py',
   'PYMODULE'),
  ('multiprocessing.reduction',
   'C:\\Users\\Student\\AppData\\Local\\Programs\\Python\\Python39\\lib\\multiprocessing\\reduction.py',
   'PYMODULE'),
  ('multiprocessing.resource_sharer',
   'C:\\Users\\Student\\AppData\\Local\\Programs\\Python\\Python39\\lib\\multiprocessing\\resource_sharer.py',
   'PYMODULE'),
  ('multiprocessing.connection',
   'C:\\Users\\Student\\AppData\\Local\\Programs\\Python\\Python39\\lib\\multiprocessing\\connection.py',
   'PYMODULE'),
  ('xmlrpc.client',
   'C:\\Users\\Student\\AppData\\Local\\Programs\\Python\\Python39\\lib\\xmlrpc\\client.py',
   'PYMODULE'),
  ('xmlrpc',
   'C:\\Users\\Student\\AppData\\Local\\Programs\\Python\\Python39\\lib\\xmlrpc\\__init__.py',
   'PYMODULE'),
  ('gzip',
   'C:\\Users\\Student\\AppData\\Local\\Programs\\Python\\Python39\\lib\\gzip.py',
   'PYMODULE'),
  ('_compression',
   'C:\\Users\\Student\\AppData\\Local\\Programs\\Python\\Python39\\lib\\_compression.py',
   'PYMODULE'),
  ('xml.parsers.expat',
   'C:\\Users\\Student\\AppData\\Local\\Programs\\Python\\Python39\\lib\\xml\\parsers\\expat.py',
   'PYMODULE'),
  ('xml.parsers',
   'C:\\Users\\Student\\AppData\\Local\\Programs\\Python\\Python39\\lib\\xml\\parsers\\__init__.py',
   'PYMODULE'),
  ('xml',
   'C:\\Users\\Student\\AppData\\Local\\Programs\\Python\\Python39\\lib\\xml\\__init__.py',
   'PYMODULE'),
  ('xml.sax.expatreader',
   'C:\\Users\\Student\\AppData\\Local\\Programs\\Python\\Python39\\lib\\xml\\sax\\expatreader.py',
   'PYMODULE'),
  ('xml.sax.saxutils',
   'C:\\Users\\Student\\AppData\\Local\\Programs\\Python\\Python39\\lib\\xml\\sax\\saxutils.py',
   'PYMODULE'),
  ('urllib.request',
   'C:\\Users\\Student\\AppData\\Local\\Programs\\Python\\Python39\\lib\\urllib\\request.py',
   'PYMODULE'),
  ('getpass',
   'C:\\Users\\Student\\AppData\\Local\\Programs\\Python\\Python39\\lib\\getpass.py',
   'PYMODULE'),
  ('nturl2path',
   'C:\\Users\\Student\\AppData\\Local\\Programs\\Python\\Python39\\lib\\nturl2path.py',
   'PYMODULE'),
  ('ftplib',
   'C:\\Users\\Student\\AppData\\Local\\Programs\\Python\\Python39\\lib\\ftplib.py',
   'PYMODULE'),
  ('netrc',
   'C:\\Users\\Student\\AppData\\Local\\Programs\\Python\\Python39\\lib\\netrc.py',
   'PYMODULE'),
  ('shlex',
   'C:\\Users\\Student\\AppData\\Local\\Programs\\Python\\Python39\\lib\\shlex.py',
   'PYMODULE'),
  ('mimetypes',
   'C:\\Users\\Student\\AppData\\Local\\Programs\\Python\\Python39\\lib\\mimetypes.py',
   'PYMODULE'),
  ('getopt',
   'C:\\Users\\Student\\AppData\\Local\\Programs\\Python\\Python39\\lib\\getopt.py',
   'PYMODULE'),
  ('email.utils',
   'C:\\Users\\Student\\AppData\\Local\\Programs\\Python\\Python39\\lib\\email\\utils.py',
   'PYMODULE'),
  ('email.charset',
   'C:\\Users\\Student\\AppData\\Local\\Programs\\Python\\Python39\\lib\\email\\charset.py',
   'PYMODULE'),
  ('email.encoders',
   'C:\\Users\\Student\\AppData\\Local\\Programs\\Python\\Python39\\lib\\email\\encoders.py',
   'PYMODULE'),
  ('quopri',
   'C:\\Users\\Student\\AppData\\Local\\Programs\\Python\\Python39\\lib\\quopri.py',
   'PYMODULE'),
  ('email.errors',
   'C:\\Users\\Student\\AppData\\Local\\Programs\\Python\\Python39\\lib\\email\\errors.py',
   'PYMODULE'),
  ('email.quoprimime',
   'C:\\Users\\Student\\AppData\\Local\\Programs\\Python\\Python39\\lib\\email\\quoprimime.py',
   'PYMODULE'),
  ('email.base64mime',
   'C:\\Users\\Student\\AppData\\Local\\Programs\\Python\\Python39\\lib\\email\\base64mime.py',
   'PYMODULE'),
  ('email._parseaddr',
   'C:\\Users\\Student\\AppData\\Local\\Programs\\Python\\Python39\\lib\\email\\_parseaddr.py',
   'PYMODULE'),
  ('http.cookiejar',
   'C:\\Users\\Student\\AppData\\Local\\Programs\\Python\\Python39\\lib\\http\\cookiejar.py',
   'PYMODULE'),
  ('http',
   'C:\\Users\\Student\\AppData\\Local\\Programs\\Python\\Python39\\lib\\http\\__init__.py',
   'PYMODULE'),
  ('urllib',
   'C:\\Users\\Student\\AppData\\Local\\Programs\\Python\\Python39\\lib\\urllib\\__init__.py',
   'PYMODULE'),
  ('urllib.response',
   'C:\\Users\\Student\\AppData\\Local\\Programs\\Python\\Python39\\lib\\urllib\\response.py',
   'PYMODULE'),
  ('urllib.error',
   'C:\\Users\\Student\\AppData\\Local\\Programs\\Python\\Python39\\lib\\urllib\\error.py',
   'PYMODULE'),
  ('email',
   'C:\\Users\\Student\\AppData\\Local\\Programs\\Python\\Python39\\lib\\email\\__init__.py',
   'PYMODULE'),
  ('email.parser',
   'C:\\Users\\Student\\AppData\\Local\\Programs\\Python\\Python39\\lib\\email\\parser.py',
   'PYMODULE'),
  ('email._policybase',
   'C:\\Users\\Student\\AppData\\Local\\Programs\\Python\\Python39\\lib\\email\\_policybase.py',
   'PYMODULE'),
  ('email.feedparser',
   'C:\\Users\\Student\\AppData\\Local\\Programs\\Python\\Python39\\lib\\email\\feedparser.py',
   'PYMODULE'),
  ('email.message',
   'C:\\Users\\Student\\AppData\\Local\\Programs\\Python\\Python39\\lib\\email\\message.py',
   'PYMODULE'),
  ('email.policy',
   'C:\\Users\\Student\\AppData\\Local\\Programs\\Python\\Python39\\lib\\email\\policy.py',
   'PYMODULE'),
  ('email.contentmanager',
   'C:\\Users\\Student\\AppData\\Local\\Programs\\Python\\Python39\\lib\\email\\contentmanager.py',
   'PYMODULE'),
  ('email.headerregistry',
   'C:\\Users\\Student\\AppData\\Local\\Programs\\Python\\Python39\\lib\\email\\headerregistry.py',
   'PYMODULE'),
  ('email.iterators',
   'C:\\Users\\Student\\AppData\\Local\\Programs\\Python\\Python39\\lib\\email\\iterators.py',
   'PYMODULE'),
  ('email.generator',
   'C:\\Users\\Student\\AppData\\Local\\Programs\\Python\\Python39\\lib\\email\\generator.py',
   'PYMODULE'),
  ('email._encoded_words',
   'C:\\Users\\Student\\AppData\\Local\\Programs\\Python\\Python39\\lib\\email\\_encoded_words.py',
   'PYMODULE'),
  ('uu',
   'C:\\Users\\Student\\AppData\\Local\\Programs\\Python\\Python39\\lib\\uu.py',
   'PYMODULE'),
  ('optparse',
   'C:\\Users\\Student\\AppData\\Local\\Programs\\Python\\Python39\\lib\\optparse.py',
   'PYMODULE'),
  ('email._header_value_parser',
   'C:\\Users\\Student\\AppData\\Local\\Programs\\Python\\Python39\\lib\\email\\_header_value_parser.py',
   'PYMODULE'),
  ('email.header',
   'C:\\Users\\Student\\AppData\\Local\\Programs\\Python\\Python39\\lib\\email\\header.py',
   'PYMODULE'),
  ('xml.sax',
   'C:\\Users\\Student\\AppData\\Local\\Programs\\Python\\Python39\\lib\\xml\\sax\\__init__.py',
   'PYMODULE'),
  ('xml.sax.handler',
   'C:\\Users\\Student\\AppData\\Local\\Programs\\Python\\Python39\\lib\\xml\\sax\\handler.py',
   'PYMODULE'),
  ('xml.sax._exceptions',
   'C:\\Users\\Student\\AppData\\Local\\Programs\\Python\\Python39\\lib\\xml\\sax\\_exceptions.py',
   'PYMODULE'),
  ('xml.sax.xmlreader',
   'C:\\Users\\Student\\AppData\\Local\\Programs\\Python\\Python39\\lib\\xml\\sax\\xmlreader.py',
   'PYMODULE'),
  ('urllib.parse',
   'C:\\Users\\Student\\AppData\\Local\\Programs\\Python\\Python39\\lib\\urllib\\parse.py',
   'PYMODULE'),
  ('http.client',
   'C:\\Users\\Student\\AppData\\Local\\Programs\\Python\\Python39\\lib\\http\\client.py',
   'PYMODULE'),
  ('multiprocessing',
   'C:\\Users\\Student\\AppData\\Local\\Programs\\Python\\Python39\\lib\\multiprocessing\\__init__.py',
   'PYMODULE'),
  ('concurrent.futures._base',
   'C:\\Users\\Student\\AppData\\Local\\Programs\\Python\\Python39\\lib\\concurrent\\futures\\_base.py',
   'PYMODULE'),
  ('concurrent',
   'C:\\Users\\Student\\AppData\\Local\\Programs\\Python\\Python39\\lib\\concurrent\\__init__.py',
   'PYMODULE'),
  ('asyncio.trsock',
   'C:\\Users\\Student\\AppData\\Local\\Programs\\Python\\Python39\\lib\\asyncio\\trsock.py',
   'PYMODULE'),
  ('asyncio.staggered',
   'C:\\Users\\Student\\AppData\\Local\\Programs\\Python\\Python39\\lib\\asyncio\\staggered.py',
   'PYMODULE'),
  ('asyncio.tasks',
   'C:\\Users\\Student\\AppData\\Local\\Programs\\Python\\Python39\\lib\\asyncio\\tasks.py',
   'PYMODULE'),
  ('asyncio.base_tasks',
   'C:\\Users\\Student\\AppData\\Local\\Programs\\Python\\Python39\\lib\\asyncio\\base_tasks.py',
   'PYMODULE'),
  ('asyncio.locks',
   'C:\\Users\\Student\\AppData\\Local\\Programs\\Python\\Python39\\lib\\asyncio\\locks.py',
   'PYMODULE'),
  ('asyncio.sslproto',
   'C:\\Users\\Student\\AppData\\Local\\Programs\\Python\\Python39\\lib\\asyncio\\sslproto.py',
   'PYMODULE'),
  ('asyncio.transports',
   'C:\\Users\\Student\\AppData\\Local\\Programs\\Python\\Python39\\lib\\asyncio\\transports.py',
   'PYMODULE'),
  ('asyncio.protocols',
   'C:\\Users\\Student\\AppData\\Local\\Programs\\Python\\Python39\\lib\\asyncio\\protocols.py',
   'PYMODULE'),
  ('asyncio.futures',
   'C:\\Users\\Student\\AppData\\Local\\Programs\\Python\\Python39\\lib\\asyncio\\futures.py',
   'PYMODULE'),
  ('asyncio.exceptions',
   'C:\\Users\\Student\\AppData\\Local\\Programs\\Python\\Python39\\lib\\asyncio\\exceptions.py',
   'PYMODULE'),
  ('asyncio.coroutines',
   'C:\\Users\\Student\\AppData\\Local\\Programs\\Python\\Python39\\lib\\asyncio\\coroutines.py',
   'PYMODULE'),
  ('asyncio.base_futures',
   'C:\\Users\\Student\\AppData\\Local\\Programs\\Python\\Python39\\lib\\asyncio\\base_futures.py',
   'PYMODULE'),
  ('asyncio.format_helpers',
   'C:\\Users\\Student\\AppData\\Local\\Programs\\Python\\Python39\\lib\\asyncio\\format_helpers.py',
   'PYMODULE'),
  ('asyncio.constants',
   'C:\\Users\\Student\\AppData\\Local\\Programs\\Python\\Python39\\lib\\asyncio\\constants.py',
   'PYMODULE'),
  ('unittest.signals',
   'C:\\Users\\Student\\AppData\\Local\\Programs\\Python\\Python39\\lib\\unittest\\signals.py',
   'PYMODULE'),
  ('unittest.main',
   'C:\\Users\\Student\\AppData\\Local\\Programs\\Python\\Python39\\lib\\unittest\\main.py',
   'PYMODULE'),
  ('unittest.runner',
   'C:\\Users\\Student\\AppData\\Local\\Programs\\Python\\Python39\\lib\\unittest\\runner.py',
   'PYMODULE'),
  ('unittest.loader',
   'C:\\Users\\Student\\AppData\\Local\\Programs\\Python\\Python39\\lib\\unittest\\loader.py',
   'PYMODULE'),
  ('unittest.suite',
   'C:\\Users\\Student\\AppData\\Local\\Programs\\Python\\Python39\\lib\\unittest\\suite.py',
   'PYMODULE'),
  ('unittest.case',
   'C:\\Users\\Student\\AppData\\Local\\Programs\\Python\\Python39\\lib\\unittest\\case.py',
   'PYMODULE'),
  ('unittest._log',
   'C:\\Users\\Student\\AppData\\Local\\Programs\\Python\\Python39\\lib\\unittest\\_log.py',
   'PYMODULE'),
  ('unittest.result',
   'C:\\Users\\Student\\AppData\\Local\\Programs\\Python\\Python39\\lib\\unittest\\result.py',
   'PYMODULE'),
  ('unittest.util',
   'C:\\Users\\Student\\AppData\\Local\\Programs\\Python\\Python39\\lib\\unittest\\util.py',
   'PYMODULE'),
  ('pdb',
   'C:\\Users\\Student\\AppData\\Local\\Programs\\Python\\Python39\\lib\\pdb.py',
   'PYMODULE'),
  ('pydoc',
   'C:\\Users\\Student\\AppData\\Local\\Programs\\Python\\Python39\\lib\\pydoc.py',
   'PYMODULE'),
  ('webbrowser',
   'C:\\Users\\Student\\AppData\\Local\\Programs\\Python\\Python39\\lib\\webbrowser.py',
   'PYMODULE'),
  ('http.server',
   'C:\\Users\\Student\\AppData\\Local\\Programs\\Python\\Python39\\lib\\http\\server.py',
   'PYMODULE'),
  ('socketserver',
   'C:\\Users\\Student\\AppData\\Local\\Programs\\Python\\Python39\\lib\\socketserver.py',
   'PYMODULE'),
  ('html',
   'C:\\Users\\Student\\AppData\\Local\\Programs\\Python\\Python39\\lib\\html\\__init__.py',
   'PYMODULE'),
  ('html.entities',
   'C:\\Users\\Student\\AppData\\Local\\Programs\\Python\\Python39\\lib\\html\\entities.py',
   'PYMODULE'),
  ('pydoc_data.topics',
   'C:\\Users\\Student\\AppData\\Local\\Programs\\Python\\Python39\\lib\\pydoc_data\\topics.py',
   'PYMODULE'),
  ('pydoc_data',
   'C:\\Users\\Student\\AppData\\Local\\Programs\\Python\\Python39\\lib\\pydoc_data\\__init__.py',
   'PYMODULE'),
  ('tty',
   'C:\\Users\\Student\\AppData\\Local\\Programs\\Python\\Python39\\lib\\tty.py',
   'PYMODULE'),
  ('sysconfig',
   'C:\\Users\\Student\\AppData\\Local\\Programs\\Python\\Python39\\lib\\sysconfig.py',
   'PYMODULE'),
  ('_aix_support',
   'C:\\Users\\Student\\AppData\\Local\\Programs\\Python\\Python39\\lib\\_aix_support.py',
   'PYMODULE'),
  ('_bootsubprocess',
   'C:\\Users\\Student\\AppData\\Local\\Programs\\Python\\Python39\\lib\\_bootsubprocess.py',
   'PYMODULE'),
  ('_osx_support',
   'C:\\Users\\Student\\AppData\\Local\\Programs\\Python\\Python39\\lib\\_osx_support.py',
   'PYMODULE'),
  ('distutils.log',
   'C:\\Users\\Student\\AppData\\Local\\Programs\\Python\\Python39\\lib\\distutils\\log.py',
   'PYMODULE'),
  ('distutils',
   'C:\\Users\\Student\\AppData\\Local\\Programs\\Python\\Python39\\lib\\distutils\\__init__.py',
   'PYMODULE'),
  ('distutils.archive_util',
   'C:\\Users\\Student\\AppData\\Local\\Programs\\Python\\Python39\\lib\\distutils\\archive_util.py',
   'PYMODULE'),
  ('distutils.dir_util',
   'C:\\Users\\Student\\AppData\\Local\\Programs\\Python\\Python39\\lib\\distutils\\dir_util.py',
   'PYMODULE'),
  ('distutils.file_util',
   'C:\\Users\\Student\\AppData\\Local\\Programs\\Python\\Python39\\lib\\distutils\\file_util.py',
   'PYMODULE'),
  ('distutils.dep_util',
   'C:\\Users\\Student\\AppData\\Local\\Programs\\Python\\Python39\\lib\\distutils\\dep_util.py',
   'PYMODULE'),
  ('distutils.spawn',
   'C:\\Users\\Student\\AppData\\Local\\Programs\\Python\\Python39\\lib\\distutils\\spawn.py',
   'PYMODULE'),
  ('distutils.debug',
   'C:\\Users\\Student\\AppData\\Local\\Programs\\Python\\Python39\\lib\\distutils\\debug.py',
   'PYMODULE'),
  ('distutils.errors',
   'C:\\Users\\Student\\AppData\\Local\\Programs\\Python\\Python39\\lib\\distutils\\errors.py',
   'PYMODULE'),
  ('distutils.ccompiler',
   'C:\\Users\\Student\\AppData\\Local\\Programs\\Python\\Python39\\lib\\distutils\\ccompiler.py',
   'PYMODULE'),
  ('distutils.fancy_getopt',
   'C:\\Users\\Student\\AppData\\Local\\Programs\\Python\\Python39\\lib\\distutils\\fancy_getopt.py',
   'PYMODULE'),
  ('distutils.util',
   'C:\\Users\\Student\\AppData\\Local\\Programs\\Python\\Python39\\lib\\distutils\\util.py',
   'PYMODULE'),
  ('distutils.filelist',
   'C:\\Users\\Student\\AppData\\Local\\Programs\\Python\\Python39\\lib\\distutils\\filelist.py',
   'PYMODULE'),
  ('distutils.sysconfig',
   'C:\\Users\\Student\\AppData\\Local\\Programs\\Python\\Python39\\lib\\distutils\\sysconfig.py',
   'PYMODULE'),
  ('distutils.text_file',
   'C:\\Users\\Student\\AppData\\Local\\Programs\\Python\\Python39\\lib\\distutils\\text_file.py',
   'PYMODULE'),
  ('platform',
   'C:\\Users\\Student\\AppData\\Local\\Programs\\Python\\Python39\\lib\\platform.py',
   'PYMODULE'),
  ('plistlib',
   'C:\\Users\\Student\\AppData\\Local\\Programs\\Python\\Python39\\lib\\plistlib.py',
   'PYMODULE'),
  ('tokenize',
   'C:\\Users\\Student\\AppData\\Local\\Programs\\Python\\Python39\\lib\\tokenize.py',
   'PYMODULE'),
  ('token',
   'C:\\Users\\Student\\AppData\\Local\\Programs\\Python\\Python39\\lib\\token.py',
   'PYMODULE'),
  ('glob',
   'C:\\Users\\Student\\AppData\\Local\\Programs\\Python\\Python39\\lib\\glob.py',
   'PYMODULE'),
  ('code',
   'C:\\Users\\Student\\AppData\\Local\\Programs\\Python\\Python39\\lib\\code.py',
   'PYMODULE'),
  ('codeop',
   'C:\\Users\\Student\\AppData\\Local\\Programs\\Python\\Python39\\lib\\codeop.py',
   'PYMODULE'),
  ('dis',
   'C:\\Users\\Student\\AppData\\Local\\Programs\\Python\\Python39\\lib\\dis.py',
   'PYMODULE'),
  ('opcode',
   'C:\\Users\\Student\\AppData\\Local\\Programs\\Python\\Python39\\lib\\opcode.py',
   'PYMODULE'),
  ('bdb',
   'C:\\Users\\Student\\AppData\\Local\\Programs\\Python\\Python39\\lib\\bdb.py',
   'PYMODULE'),
  ('cmd',
   'C:\\Users\\Student\\AppData\\Local\\Programs\\Python\\Python39\\lib\\cmd.py',
   'PYMODULE'),
  ('inspect',
   'C:\\Users\\Student\\AppData\\Local\\Programs\\Python\\Python39\\lib\\inspect.py',
   'PYMODULE'),
  ('ast',
   'C:\\Users\\Student\\AppData\\Local\\Programs\\Python\\Python39\\lib\\ast.py',
   'PYMODULE'),
  ('difflib',
   'C:\\Users\\Student\\AppData\\Local\\Programs\\Python\\Python39\\lib\\difflib.py',
   'PYMODULE'),
  ('__future__',
   'C:\\Users\\Student\\AppData\\Local\\Programs\\Python\\Python39\\lib\\__future__.py',
   'PYMODULE'),
  ('_compat_pickle',
   'C:\\Users\\Student\\AppData\\Local\\Programs\\Python\\Python39\\lib\\_compat_pickle.py',
   'PYMODULE'),
  ('bisect',
   'C:\\Users\\Student\\AppData\\Local\\Programs\\Python\\Python39\\lib\\bisect.py',
   'PYMODULE'),
  ('pathlib',
   'C:\\Users\\Student\\AppData\\Local\\Programs\\Python\\Python39\\lib\\pathlib.py',
   'PYMODULE'),
  ('importlib._bootstrap',
   'C:\\Users\\Student\\AppData\\Local\\Programs\\Python\\Python39\\lib\\importlib\\_bootstrap.py',
   'PYMODULE'),
  ('importlib._bootstrap_external',
   'C:\\Users\\Student\\AppData\\Local\\Programs\\Python\\Python39\\lib\\importlib\\_bootstrap_external.py',
   'PYMODULE'),
  ('importlib.metadata',
   'C:\\Users\\Student\\AppData\\Local\\Programs\\Python\\Python39\\lib\\importlib\\metadata.py',
   'PYMODULE'),
  ('configparser',
   'C:\\Users\\Student\\AppData\\Local\\Programs\\Python\\Python39\\lib\\configparser.py',
   'PYMODULE'),
  ('csv',
   'C:\\Users\\Student\\AppData\\Local\\Programs\\Python\\Python39\\lib\\csv.py',
   'PYMODULE'),
  ('contextlib',
   'C:\\Users\\Student\\AppData\\Local\\Programs\\Python\\Python39\\lib\\contextlib.py',
   'PYMODULE'),
  ('threading',
   'C:\\Users\\Student\\AppData\\Local\\Programs\\Python\\Python39\\lib\\threading.py',
   'PYMODULE'),
  ('_threading_local',
   'C:\\Users\\Student\\AppData\\Local\\Programs\\Python\\Python39\\lib\\_threading_local.py',
   'PYMODULE'),
  ('struct',
   'C:\\Users\\Student\\AppData\\Local\\Programs\\Python\\Python39\\lib\\struct.py',
   'PYMODULE'),
  ('posixpath',
   'C:\\Users\\Student\\AppData\\Local\\Programs\\Python\\Python39\\lib\\posixpath.py',
   'PYMODULE'),
  ('importlib.util',
   'C:\\Users\\Student\\AppData\\Local\\Programs\\Python\\Python39\\lib\\importlib\\util.py',
   'PYMODULE'),
  ('tarfile',
   'C:\\Users\\Student\\AppData\\Local\\Programs\\Python\\Python39\\lib\\tarfile.py',
   'PYMODULE'),
  ('lzma',
   'C:\\Users\\Student\\AppData\\Local\\Programs\\Python\\Python39\\lib\\lzma.py',
   'PYMODULE'),
  ('bz2',
   'C:\\Users\\Student\\AppData\\Local\\Programs\\Python\\Python39\\lib\\bz2.py',
   'PYMODULE'),
  ('fnmatch',
   'C:\\Users\\Student\\AppData\\Local\\Programs\\Python\\Python39\\lib\\fnmatch.py',
   'PYMODULE'),
  ('stat',
   'C:\\Users\\Student\\AppData\\Local\\Programs\\Python\\Python39\\lib\\stat.py',
   'PYMODULE'),
  ('copy',
   'C:\\Users\\Student\\AppData\\Local\\Programs\\Python\\Python39\\lib\\copy.py',
   'PYMODULE'),
  ('gettext',
   'C:\\Users\\Student\\AppData\\Local\\Programs\\Python\\Python39\\lib\\gettext.py',
   'PYMODULE'),
  ('datetime',
   'C:\\Users\\Student\\AppData\\Local\\Programs\\Python\\Python39\\lib\\datetime.py',
   'PYMODULE'),
  ('_strptime',
   'C:\\Users\\Student\\AppData\\Local\\Programs\\Python\\Python39\\lib\\_strptime.py',
   'PYMODULE'),
  ('base64',
   'C:\\Users\\Student\\AppData\\Local\\Programs\\Python\\Python39\\lib\\base64.py',
   'PYMODULE'),
  ('socket',
   'C:\\Users\\Student\\AppData\\Local\\Programs\\Python\\Python39\\lib\\socket.py',
   'PYMODULE'),
  ('os',
   'C:\\Users\\Student\\AppData\\Local\\Programs\\Python\\Python39\\lib\\os.py',
   'PYMODULE'),
  ('stringprep',
   'C:\\Users\\Student\\AppData\\Local\\Programs\\Python\\Python39\\lib\\stringprep.py',
   'PYMODULE'),
  ('_py_abc',
   'C:\\Users\\Student\\AppData\\Local\\Programs\\Python\\Python39\\lib\\_py_abc.py',
   'PYMODULE'),
  ('tracemalloc',
   'C:\\Users\\Student\\AppData\\Local\\Programs\\Python\\Python39\\lib\\tracemalloc.py',
   'PYMODULE'),
  ('requests',
   'C:\\Users\\Student\\AppData\\Local\\Programs\\Python\\Python39\\lib\\site-packages\\requests\\__init__.py',
   'PYMODULE'),
  ('requests.status_codes',
   'C:\\Users\\Student\\AppData\\Local\\Programs\\Python\\Python39\\lib\\site-packages\\requests\\status_codes.py',
   'PYMODULE'),
  ('requests.structures',
   'C:\\Users\\Student\\AppData\\Local\\Programs\\Python\\Python39\\lib\\site-packages\\requests\\structures.py',
   'PYMODULE'),
  ('requests.compat',
   'C:\\Users\\Student\\AppData\\Local\\Programs\\Python\\Python39\\lib\\site-packages\\requests\\compat.py',
   'PYMODULE'),
  ('http.cookies',
   'C:\\Users\\Student\\AppData\\Local\\Programs\\Python\\Python39\\lib\\http\\cookies.py',
   'PYMODULE'),
  ('json',
   'C:\\Users\\Student\\AppData\\Local\\Programs\\Python\\Python39\\lib\\json\\__init__.py',
   'PYMODULE'),
  ('json.encoder',
   'C:\\Users\\Student\\AppData\\Local\\Programs\\Python\\Python39\\lib\\json\\encoder.py',
   'PYMODULE'),
  ('json.decoder',
   'C:\\Users\\Student\\AppData\\Local\\Programs\\Python\\Python39\\lib\\json\\decoder.py',
   'PYMODULE'),
  ('json.scanner',
   'C:\\Users\\Student\\AppData\\Local\\Programs\\Python\\Python39\\lib\\json\\scanner.py',
   'PYMODULE'),
  ('requests.api',
   'C:\\Users\\Student\\AppData\\Local\\Programs\\Python\\Python39\\lib\\site-packages\\requests\\api.py',
   'PYMODULE'),
  ('requests.sessions',
   'C:\\Users\\Student\\AppData\\Local\\Programs\\Python\\Python39\\lib\\site-packages\\requests\\sessions.py',
   'PYMODULE'),
  ('requests.adapters',
   'C:\\Users\\Student\\AppData\\Local\\Programs\\Python\\Python39\\lib\\site-packages\\requests\\adapters.py',
   'PYMODULE'),
  ('urllib3.contrib.socks',
   'C:\\Users\\Student\\AppData\\Local\\Programs\\Python\\Python39\\lib\\site-packages\\urllib3\\contrib\\socks.py',
   'PYMODULE'),
  ('urllib3.util.url',
   'C:\\Users\\Student\\AppData\\Local\\Programs\\Python\\Python39\\lib\\site-packages\\urllib3\\util\\url.py',
   'PYMODULE'),
  ('idna',
   'C:\\Users\\Student\\AppData\\Local\\Programs\\Python\\Python39\\lib\\site-packages\\idna\\__init__.py',
   'PYMODULE'),
  ('idna.intranges',
   'C:\\Users\\Student\\AppData\\Local\\Programs\\Python\\Python39\\lib\\site-packages\\idna\\intranges.py',
   'PYMODULE'),
  ('idna.core',
   'C:\\Users\\Student\\AppData\\Local\\Programs\\Python\\Python39\\lib\\site-packages\\idna\\core.py',
   'PYMODULE'),
  ('idna.uts46data',
   'C:\\Users\\Student\\AppData\\Local\\Programs\\Python\\Python39\\lib\\site-packages\\idna\\uts46data.py',
   'PYMODULE'),
  ('idna.idnadata',
   'C:\\Users\\Student\\AppData\\Local\\Programs\\Python\\Python39\\lib\\site-packages\\idna\\idnadata.py',
   'PYMODULE'),
  ('idna.package_data',
   'C:\\Users\\Student\\AppData\\Local\\Programs\\Python\\Python39\\lib\\site-packages\\idna\\package_data.py',
   'PYMODULE'),
  ('urllib3.packages.six',
   'C:\\Users\\Student\\AppData\\Local\\Programs\\Python\\Python39\\lib\\site-packages\\urllib3\\packages\\six.py',
   'PYMODULE'),
  ('urllib3.packages',
   'C:\\Users\\Student\\AppData\\Local\\Programs\\Python\\Python39\\lib\\site-packages\\urllib3\\packages\\__init__.py',
   'PYMODULE'),
  ('urllib3.packages.ssl_match_hostname',
   'C:\\Users\\Student\\AppData\\Local\\Programs\\Python\\Python39\\lib\\site-packages\\urllib3\\packages\\ssl_match_hostname\\__init__.py',
   'PYMODULE'),
  ('urllib3.packages.ssl_match_hostname._implementation',
   'C:\\Users\\Student\\AppData\\Local\\Programs\\Python\\Python39\\lib\\site-packages\\urllib3\\packages\\ssl_match_hostname\\_implementation.py',
   'PYMODULE'),
  ('ipaddress',
   'C:\\Users\\Student\\AppData\\Local\\Programs\\Python\\Python39\\lib\\ipaddress.py',
   'PYMODULE'),
  ('urllib3.connectionpool',
   'C:\\Users\\Student\\AppData\\Local\\Programs\\Python\\Python39\\lib\\site-packages\\urllib3\\connectionpool.py',
   'PYMODULE'),
  ('urllib3.util.timeout',
   'C:\\Users\\Student\\AppData\\Local\\Programs\\Python\\Python39\\lib\\site-packages\\urllib3\\util\\timeout.py',
   'PYMODULE'),
  ('urllib3.util.response',
   'C:\\Users\\Student\\AppData\\Local\\Programs\\Python\\Python39\\lib\\site-packages\\urllib3\\util\\response.py',
   'PYMODULE'),
  ('urllib3.util.request',
   'C:\\Users\\Student\\AppData\\Local\\Programs\\Python\\Python39\\lib\\site-packages\\urllib3\\util\\request.py',
   'PYMODULE'),
  ('urllib3.util.queue',
   'C:\\Users\\Student\\AppData\\Local\\Programs\\Python\\Python39\\lib\\site-packages\\urllib3\\util\\queue.py',
   'PYMODULE'),
  ('urllib3.util.proxy',
   'C:\\Users\\Student\\AppData\\Local\\Programs\\Python\\Python39\\lib\\site-packages\\urllib3\\util\\proxy.py',
   'PYMODULE'),
  ('urllib3.util.ssl_',
   'C:\\Users\\Student\\AppData\\Local\\Programs\\Python\\Python39\\lib\\site-packages\\urllib3\\util\\ssl_.py',
   'PYMODULE'),
  ('urllib3.util.ssltransport',
   'C:\\Users\\Student\\AppData\\Local\\Programs\\Python\\Python39\\lib\\site-packages\\urllib3\\util\\ssltransport.py',
   'PYMODULE'),
  ('urllib3.util.connection',
   'C:\\Users\\Student\\AppData\\Local\\Programs\\Python\\Python39\\lib\\site-packages\\urllib3\\util\\connection.py',
   'PYMODULE'),
  ('urllib3.util.wait',
   'C:\\Users\\Student\\AppData\\Local\\Programs\\Python\\Python39\\lib\\site-packages\\urllib3\\util\\wait.py',
   'PYMODULE'),
  ('urllib3.contrib._appengine_environ',
   'C:\\Users\\Student\\AppData\\Local\\Programs\\Python\\Python39\\lib\\site-packages\\urllib3\\contrib\\_appengine_environ.py',
   'PYMODULE'),
  ('urllib3.request',
   'C:\\Users\\Student\\AppData\\Local\\Programs\\Python\\Python39\\lib\\site-packages\\urllib3\\request.py',
   'PYMODULE'),
  ('urllib3.filepost',
   'C:\\Users\\Student\\AppData\\Local\\Programs\\Python\\Python39\\lib\\site-packages\\urllib3\\filepost.py',
   'PYMODULE'),
  ('urllib3.fields',
   'C:\\Users\\Student\\AppData\\Local\\Programs\\Python\\Python39\\lib\\site-packages\\urllib3\\fields.py',
   'PYMODULE'),
  ('urllib3.connection',
   'C:\\Users\\Student\\AppData\\Local\\Programs\\Python\\Python39\\lib\\site-packages\\urllib3\\connection.py',
   'PYMODULE'),
  ('urllib3._version',
   'C:\\Users\\Student\\AppData\\Local\\Programs\\Python\\Python39\\lib\\site-packages\\urllib3\\_version.py',
   'PYMODULE'),
  ('urllib3._collections',
   'C:\\Users\\Student\\AppData\\Local\\Programs\\Python\\Python39\\lib\\site-packages\\urllib3\\_collections.py',
   'PYMODULE'),
  ('urllib3.util.retry',
   'C:\\Users\\Student\\AppData\\Local\\Programs\\Python\\Python39\\lib\\site-packages\\urllib3\\util\\retry.py',
   'PYMODULE'),
  ('urllib3.util',
   'C:\\Users\\Student\\AppData\\Local\\Programs\\Python\\Python39\\lib\\site-packages\\urllib3\\util\\__init__.py',
   'PYMODULE'),
  ('urllib3.response',
   'C:\\Users\\Student\\AppData\\Local\\Programs\\Python\\Python39\\lib\\site-packages\\urllib3\\response.py',
   'PYMODULE'),
  ('urllib3.poolmanager',
   'C:\\Users\\Student\\AppData\\Local\\Programs\\Python\\Python39\\lib\\site-packages\\urllib3\\poolmanager.py',
   'PYMODULE'),
  ('requests._internal_utils',
   'C:\\Users\\Student\\AppData\\Local\\Programs\\Python\\Python39\\lib\\site-packages\\requests\\_internal_utils.py',
   'PYMODULE'),
  ('requests.hooks',
   'C:\\Users\\Student\\AppData\\Local\\Programs\\Python\\Python39\\lib\\site-packages\\requests\\hooks.py',
   'PYMODULE'),
  ('requests.cookies',
   'C:\\Users\\Student\\AppData\\Local\\Programs\\Python\\Python39\\lib\\site-packages\\requests\\cookies.py',
   'PYMODULE'),
  ('requests.auth',
   'C:\\Users\\Student\\AppData\\Local\\Programs\\Python\\Python39\\lib\\site-packages\\requests\\auth.py',
   'PYMODULE'),
  ('requests.packages',
   'C:\\Users\\Student\\AppData\\Local\\Programs\\Python\\Python39\\lib\\site-packages\\requests\\packages.py',
   'PYMODULE'),
  ('requests.utils',
   'C:\\Users\\Student\\AppData\\Local\\Programs\\Python\\Python39\\lib\\site-packages\\requests\\utils.py',
   'PYMODULE'),
  ('requests.certs',
   'C:\\Users\\Student\\AppData\\Local\\Programs\\Python\\Python39\\lib\\site-packages\\requests\\certs.py',
   'PYMODULE'),
  ('certifi',
   'C:\\Users\\Student\\AppData\\Local\\Programs\\Python\\Python39\\lib\\site-packages\\certifi\\__init__.py',
   'PYMODULE'),
  ('certifi.core',
   'C:\\Users\\Student\\AppData\\Local\\Programs\\Python\\Python39\\lib\\site-packages\\certifi\\core.py',
   'PYMODULE'),
  ('importlib.resources',
   'C:\\Users\\Student\\AppData\\Local\\Programs\\Python\\Python39\\lib\\importlib\\resources.py',
   'PYMODULE'),
  ('requests.__version__',
   'C:\\Users\\Student\\AppData\\Local\\Programs\\Python\\Python39\\lib\\site-packages\\requests\\__version__.py',
   'PYMODULE'),
  ('urllib3.exceptions',
   'C:\\Users\\Student\\AppData\\Local\\Programs\\Python\\Python39\\lib\\site-packages\\urllib3\\exceptions.py',
   'PYMODULE'),
  ('urllib3.contrib.pyopenssl',
   'C:\\Users\\Student\\AppData\\Local\\Programs\\Python\\Python39\\lib\\site-packages\\urllib3\\contrib\\pyopenssl.py',
   'PYMODULE'),
  ('urllib3.packages.backports.makefile',
   'C:\\Users\\Student\\AppData\\Local\\Programs\\Python\\Python39\\lib\\site-packages\\urllib3\\packages\\backports\\makefile.py',
   'PYMODULE'),
  ('urllib3.packages.backports',
   'C:\\Users\\Student\\AppData\\Local\\Programs\\Python\\Python39\\lib\\site-packages\\urllib3\\packages\\backports\\__init__.py',
   'PYMODULE'),
  ('urllib3.contrib',
   'C:\\Users\\Student\\AppData\\Local\\Programs\\Python\\Python39\\lib\\site-packages\\urllib3\\contrib\\__init__.py',
   'PYMODULE'),
  ('charset_normalizer',
   'C:\\Users\\Student\\AppData\\Local\\Programs\\Python\\Python39\\lib\\site-packages\\charset_normalizer\\__init__.py',
   'PYMODULE'),
  ('charset_normalizer.version',
   'C:\\Users\\Student\\AppData\\Local\\Programs\\Python\\Python39\\lib\\site-packages\\charset_normalizer\\version.py',
   'PYMODULE'),
  ('charset_normalizer.models',
   'C:\\Users\\Student\\AppData\\Local\\Programs\\Python\\Python39\\lib\\site-packages\\charset_normalizer\\models.py',
   'PYMODULE'),
  ('charset_normalizer.cd',
   'C:\\Users\\Student\\AppData\\Local\\Programs\\Python\\Python39\\lib\\site-packages\\charset_normalizer\\cd.py',
   'PYMODULE'),
  ('charset_normalizer.assets',
   'C:\\Users\\Student\\AppData\\Local\\Programs\\Python\\Python39\\lib\\site-packages\\charset_normalizer\\assets\\__init__.py',
   'PYMODULE'),
  ('charset_normalizer.utils',
   'C:\\Users\\Student\\AppData\\Local\\Programs\\Python\\Python39\\lib\\site-packages\\charset_normalizer\\utils.py',
   'PYMODULE'),
  ('charset_normalizer.md',
   'C:\\Users\\Student\\AppData\\Local\\Programs\\Python\\Python39\\lib\\site-packages\\charset_normalizer\\md.py',
   'PYMODULE'),
  ('charset_normalizer.constant',
   'C:\\Users\\Student\\AppData\\Local\\Programs\\Python\\Python39\\lib\\site-packages\\charset_normalizer\\constant.py',
   'PYMODULE'),
  ('charset_normalizer.legacy',
   'C:\\Users\\Student\\AppData\\Local\\Programs\\Python\\Python39\\lib\\site-packages\\charset_normalizer\\legacy.py',
   'PYMODULE'),
  ('charset_normalizer.api',
   'C:\\Users\\Student\\AppData\\Local\\Programs\\Python\\Python39\\lib\\site-packages\\charset_normalizer\\api.py',
   'PYMODULE'),
  ('requests.exceptions',
   'C:\\Users\\Student\\AppData\\Local\\Programs\\Python\\Python39\\lib\\site-packages\\requests\\exceptions.py',
   'PYMODULE'),
  ('urllib3',
   'C:\\Users\\Student\\AppData\\Local\\Programs\\Python\\Python39\\lib\\site-packages\\urllib3\\__init__.py',
   'PYMODULE'),
  ('colorama',
   'C:\\Users\\Student\\AppData\\Local\\Programs\\Python\\Python39\\lib\\site-packages\\colorama\\__init__.py',
   'PYMODULE'),
  ('colorama.ansitowin32',
   'C:\\Users\\Student\\AppData\\Local\\Programs\\Python\\Python39\\lib\\site-packages\\colorama\\ansitowin32.py',
   'PYMODULE'),
  ('colorama.winterm',
   'C:\\Users\\Student\\AppData\\Local\\Programs\\Python\\Python39\\lib\\site-packages\\colorama\\winterm.py',
   'PYMODULE'),
  ('colorama.ansi',
   'C:\\Users\\Student\\AppData\\Local\\Programs\\Python\\Python39\\lib\\site-packages\\colorama\\ansi.py',
   'PYMODULE'),
  ('colorama.initialise',
   'C:\\Users\\Student\\AppData\\Local\\Programs\\Python\\Python39\\lib\\site-packages\\colorama\\initialise.py',
   'PYMODULE'),
  ('colorama.win32',
   'C:\\Users\\Student\\AppData\\Local\\Programs\\Python\\Python39\\lib\\site-packages\\colorama\\win32.py',
   'PYMODULE'),
  ('ctypes.wintypes',
   'C:\\Users\\Student\\AppData\\Local\\Programs\\Python\\Python39\\lib\\ctypes\\wintypes.py',
   'PYMODULE'),
  ('kociemba',
   'C:\\Users\\Student\\AppData\\Local\\Programs\\Python\\Python39\\lib\\site-packages\\kociemba\\__init__.py',
   'PYMODULE'),
  ('kociemba.pykociemba.search',
   'C:\\Users\\Student\\AppData\\Local\\Programs\\Python\\Python39\\lib\\site-packages\\kociemba\\pykociemba\\search.py',
   'PYMODULE'),
  ('kociemba.pykociemba.cubiecube',
   'C:\\Users\\Student\\AppData\\Local\\Programs\\Python\\Python39\\lib\\site-packages\\kociemba\\pykociemba\\cubiecube.py',
   'PYMODULE'),
  ('kociemba.pykociemba.edge',
   'C:\\Users\\Student\\AppData\\Local\\Programs\\Python\\Python39\\lib\\site-packages\\kociemba\\pykociemba\\edge.py',
   'PYMODULE'),
  ('kociemba.pykociemba.corner',
   'C:\\Users\\Student\\AppData\\Local\\Programs\\Python\\Python39\\lib\\site-packages\\kociemba\\pykociemba\\corner.py',
   'PYMODULE'),
  ('kociemba.pykociemba.coordcube',
   'C:\\Users\\Student\\AppData\\Local\\Programs\\Python\\Python39\\lib\\site-packages\\kociemba\\pykociemba\\coordcube.py',
   'PYMODULE'),
  ('kociemba.pykociemba.facecube',
   'C:\\Users\\Student\\AppData\\Local\\Programs\\Python\\Python39\\lib\\site-packages\\kociemba\\pykociemba\\facecube.py',
   'PYMODULE'),
  ('kociemba.pykociemba.facelet',
   'C:\\Users\\Student\\AppData\\Local\\Programs\\Python\\Python39\\lib\\site-packages\\kociemba\\pykociemba\\facelet.py',
   'PYMODULE'),
  ('kociemba.pykociemba.color',
   'C:\\Users\\Student\\AppData\\Local\\Programs\\Python\\Python39\\lib\\site-packages\\kociemba\\pykociemba\\color.py',
   'PYMODULE'),
  ('kociemba.pykociemba',
   'C:\\Users\\Student\\AppData\\Local\\Programs\\Python\\Python39\\lib\\site-packages\\kociemba\\pykociemba\\__init__.py',
   'PYMODULE'),
  ('requests.models',
   'C:\\Users\\Student\\AppData\\Local\\Programs\\Python\\Python39\\lib\\site-packages\\requests\\models.py',
   'PYMODULE'),
  ('numpy.lib.nanfunctions',
   'C:\\Users\\Student\\AppData\\Local\\Programs\\Python\\Python39\\lib\\site-packages\\numpy\\lib\\nanfunctions.py',
   'PYMODULE'),
  ('numpy.core.overrides',
   'C:\\Users\\Student\\AppData\\Local\\Programs\\Python\\Python39\\lib\\site-packages\\numpy\\core\\overrides.py',
   'PYMODULE'),
  ('numpy.compat._inspect',
   'C:\\Users\\Student\\AppData\\Local\\Programs\\Python\\Python39\\lib\\site-packages\\numpy\\compat\\_inspect.py',
   'PYMODULE'),
  ('numpy.compat',
   'C:\\Users\\Student\\AppData\\Local\\Programs\\Python\\Python39\\lib\\site-packages\\numpy\\compat\\__init__.py',
   'PYMODULE'),
  ('numpy.compat.py3k',
   'C:\\Users\\Student\\AppData\\Local\\Programs\\Python\\Python39\\lib\\site-packages\\numpy\\compat\\py3k.py',
   'PYMODULE'),
  ('numpy.core',
   'C:\\Users\\Student\\AppData\\Local\\Programs\\Python\\Python39\\lib\\site-packages\\numpy\\core\\__init__.py',
   'PYMODULE'),
  ('numpy._pytesttester',
   'C:\\Users\\Student\\AppData\\Local\\Programs\\Python\\Python39\\lib\\site-packages\\numpy\\_pytesttester.py',
   'PYMODULE'),
  ('numpy.testing',
   'C:\\Users\\Student\\AppData\\Local\\Programs\\Python\\Python39\\lib\\site-packages\\numpy\\testing\\__init__.py',
   'PYMODULE'),
  ('numpy.testing._private.nosetester',
   'C:\\Users\\Student\\AppData\\Local\\Programs\\Python\\Python39\\lib\\site-packages\\numpy\\testing\\_private\\nosetester.py',
   'PYMODULE'),
  ('numpy.testing._private.noseclasses',
   'C:\\Users\\Student\\AppData\\Local\\Programs\\Python\\Python39\\lib\\site-packages\\numpy\\testing\\_private\\noseclasses.py',
   'PYMODULE'),
  ('numpy.testing._private.decorators',
   'C:\\Users\\Student\\AppData\\Local\\Programs\\Python\\Python39\\lib\\site-packages\\numpy\\testing\\_private\\decorators.py',
   'PYMODULE'),
  ('numpy.testing._private.parameterized',
   'C:\\Users\\Student\\AppData\\Local\\Programs\\Python\\Python39\\lib\\site-packages\\numpy\\testing\\_private\\parameterized.py',
   'PYMODULE'),
  ('numpy.testing._private',
   'C:\\Users\\Student\\AppData\\Local\\Programs\\Python\\Python39\\lib\\site-packages\\numpy\\testing\\_private\\__init__.py',
   'PYMODULE'),
  ('numpy.testing._private.utils',
   'C:\\Users\\Student\\AppData\\Local\\Programs\\Python\\Python39\\lib\\site-packages\\numpy\\testing\\_private\\utils.py',
   'PYMODULE'),
  ('numpy.linalg',
   'C:\\Users\\Student\\AppData\\Local\\Programs\\Python\\Python39\\lib\\site-packages\\numpy\\linalg\\__init__.py',
   'PYMODULE'),
  ('numpy.linalg.linalg',
   'C:\\Users\\Student\\AppData\\Local\\Programs\\Python\\Python39\\lib\\site-packages\\numpy\\linalg\\linalg.py',
   'PYMODULE'),
  ('numpy.lib.twodim_base',
   'C:\\Users\\Student\\AppData\\Local\\Programs\\Python\\Python39\\lib\\site-packages\\numpy\\lib\\twodim_base.py',
   'PYMODULE'),
  ('numpy.lib.stride_tricks',
   'C:\\Users\\Student\\AppData\\Local\\Programs\\Python\\Python39\\lib\\site-packages\\numpy\\lib\\stride_tricks.py',
   'PYMODULE'),
  ('numpy.core._dtype',
   'C:\\Users\\Student\\AppData\\Local\\Programs\\Python\\Python39\\lib\\site-packages\\numpy\\core\\_dtype.py',
   'PYMODULE'),
  ('numpy.core._internal',
   'C:\\Users\\Student\\AppData\\Local\\Programs\\Python\\Python39\\lib\\site-packages\\numpy\\core\\_internal.py',
   'PYMODULE'),
  ('numpy.core._dtype_ctypes',
   'C:\\Users\\Student\\AppData\\Local\\Programs\\Python\\Python39\\lib\\site-packages\\numpy\\core\\_dtype_ctypes.py',
   'PYMODULE'),
  ('numpy.core._add_newdocs_scalars',
   'C:\\Users\\Student\\AppData\\Local\\Programs\\Python\\Python39\\lib\\site-packages\\numpy\\core\\_add_newdocs_scalars.py',
   'PYMODULE'),
  ('numpy.core._add_newdocs',
   'C:\\Users\\Student\\AppData\\Local\\Programs\\Python\\Python39\\lib\\site-packages\\numpy\\core\\_add_newdocs.py',
   'PYMODULE'),
  ('numpy.core.einsumfunc',
   'C:\\Users\\Student\\AppData\\Local\\Programs\\Python\\Python39\\lib\\site-packages\\numpy\\core\\einsumfunc.py',
   'PYMODULE'),
  ('numpy.core.machar',
   'C:\\Users\\Student\\AppData\\Local\\Programs\\Python\\Python39\\lib\\site-packages\\numpy\\core\\machar.py',
   'PYMODULE'),
  ('numpy.core._ufunc_config',
   'C:\\Users\\Student\\AppData\\Local\\Programs\\Python\\Python39\\lib\\site-packages\\numpy\\core\\_ufunc_config.py',
   'PYMODULE'),
  ('numpy.core.function_base',
   'C:\\Users\\Student\\AppData\\Local\\Programs\\Python\\Python39\\lib\\site-packages\\numpy\\core\\function_base.py',
   'PYMODULE'),
  ('numpy.core.memmap',
   'C:\\Users\\Student\\AppData\\Local\\Programs\\Python\\Python39\\lib\\site-packages\\numpy\\core\\memmap.py',
   'PYMODULE'),
  ('numpy.core.records',
   'C:\\Users\\Student\\AppData\\Local\\Programs\\Python\\Python39\\lib\\site-packages\\numpy\\core\\records.py',
   'PYMODULE'),
  ('numpy.core.arrayprint',
   'C:\\Users\\Student\\AppData\\Local\\Programs\\Python\\Python39\\lib\\site-packages\\numpy\\core\\arrayprint.py',
   'PYMODULE'),
  ('numpy.core.defchararray',
   'C:\\Users\\Student\\AppData\\Local\\Programs\\Python\\Python39\\lib\\site-packages\\numpy\\core\\defchararray.py',
   'PYMODULE'),
  ('numpy.core._asarray',
   'C:\\Users\\Student\\AppData\\Local\\Programs\\Python\\Python39\\lib\\site-packages\\numpy\\core\\_asarray.py',
   'PYMODULE'),
  ('numpy.core.shape_base',
   'C:\\Users\\Student\\AppData\\Local\\Programs\\Python\\Python39\\lib\\site-packages\\numpy\\core\\shape_base.py',
   'PYMODULE'),
  ('numpy.core.fromnumeric',
   'C:\\Users\\Student\\AppData\\Local\\Programs\\Python\\Python39\\lib\\site-packages\\numpy\\core\\fromnumeric.py',
   'PYMODULE'),
  ('numpy.core._methods',
   'C:\\Users\\Student\\AppData\\Local\\Programs\\Python\\Python39\\lib\\site-packages\\numpy\\core\\_methods.py',
   'PYMODULE'),
  ('numpy._globals',
   'C:\\Users\\Student\\AppData\\Local\\Programs\\Python\\Python39\\lib\\site-packages\\numpy\\_globals.py',
   'PYMODULE'),
  ('numpy.core.getlimits',
   'C:\\Users\\Student\\AppData\\Local\\Programs\\Python\\Python39\\lib\\site-packages\\numpy\\core\\getlimits.py',
   'PYMODULE'),
  ('numpy.core._exceptions',
   'C:\\Users\\Student\\AppData\\Local\\Programs\\Python\\Python39\\lib\\site-packages\\numpy\\core\\_exceptions.py',
   'PYMODULE'),
  ('numpy.core.numeric',
   'C:\\Users\\Student\\AppData\\Local\\Programs\\Python\\Python39\\lib\\site-packages\\numpy\\core\\numeric.py',
   'PYMODULE'),
  ('numpy.core.numerictypes',
   'C:\\Users\\Student\\AppData\\Local\\Programs\\Python\\Python39\\lib\\site-packages\\numpy\\core\\numerictypes.py',
   'PYMODULE'),
  ('numpy.core._type_aliases',
   'C:\\Users\\Student\\AppData\\Local\\Programs\\Python\\Python39\\lib\\site-packages\\numpy\\core\\_type_aliases.py',
   'PYMODULE'),
  ('numpy.core._string_helpers',
   'C:\\Users\\Student\\AppData\\Local\\Programs\\Python\\Python39\\lib\\site-packages\\numpy\\core\\_string_helpers.py',
   'PYMODULE'),
  ('numpy.core.umath',
   'C:\\Users\\Student\\AppData\\Local\\Programs\\Python\\Python39\\lib\\site-packages\\numpy\\core\\umath.py',
   'PYMODULE'),
  ('numpy.core.multiarray',
   'C:\\Users\\Student\\AppData\\Local\\Programs\\Python\\Python39\\lib\\site-packages\\numpy\\core\\multiarray.py',
   'PYMODULE'),
  ('numpy.version',
   'C:\\Users\\Student\\AppData\\Local\\Programs\\Python\\Python39\\lib\\site-packages\\numpy\\version.py',
   'PYMODULE'),
  ('numpy._version',
   'C:\\Users\\Student\\AppData\\Local\\Programs\\Python\\Python39\\lib\\site-packages\\numpy\\_version.py',
   'PYMODULE'),
  ('numpy.lib.function_base',
   'C:\\Users\\Student\\AppData\\Local\\Programs\\Python\\Python39\\lib\\site-packages\\numpy\\lib\\function_base.py',
   'PYMODULE'),
  ('numpy.lib.histograms',
   'C:\\Users\\Student\\AppData\\Local\\Programs\\Python\\Python39\\lib\\site-packages\\numpy\\lib\\histograms.py',
   'PYMODULE'),
  ('numpy.lib',
   'C:\\Users\\Student\\AppData\\Local\\Programs\\Python\\Python39\\lib\\site-packages\\numpy\\lib\\__init__.py',
   'PYMODULE'),
  ('numpy.lib._version',
   'C:\\Users\\Student\\AppData\\Local\\Programs\\Python\\Python39\\lib\\site-packages\\numpy\\lib\\_version.py',
   'PYMODULE'),
  ('numpy.lib.arraypad',
   'C:\\Users\\Student\\AppData\\Local\\Programs\\Python\\Python39\\lib\\site-packages\\numpy\\lib\\arraypad.py',
   'PYMODULE'),
  ('numpy.lib.arrayterator',
   'C:\\Users\\Student\\AppData\\Local\\Programs\\Python\\Python39\\lib\\site-packages\\numpy\\lib\\arrayterator.py',
   'PYMODULE'),
  ('numpy.lib.npyio',
   'C:\\Users\\Student\\AppData\\Local\\Programs\\Python\\Python39\\lib\\site-packages\\numpy\\lib\\npyio.py',
   'PYMODULE'),
  ('numpy.ma.mrecords',
   'C:\\Users\\Student\\AppData\\Local\\Programs\\Python\\Python39\\lib\\site-packages\\numpy\\ma\\mrecords.py',
   'PYMODULE'),
  ('numpy.ma',
   'C:\\Users\\Student\\AppData\\Local\\Programs\\Python\\Python39\\lib\\site-packages\\numpy\\ma\\__init__.py',
   'PYMODULE'),
  ('numpy.ma.extras',
   'C:\\Users\\Student\\AppData\\Local\\Programs\\Python\\Python39\\lib\\site-packages\\numpy\\ma\\extras.py',
   'PYMODULE'),
  ('numpy.ma.core',
   'C:\\Users\\Student\\AppData\\Local\\Programs\\Python\\Python39\\lib\\site-packages\\numpy\\ma\\core.py',
   'PYMODULE'),
  ('numpy.lib._iotools',
   'C:\\Users\\Student\\AppData\\Local\\Programs\\Python\\Python39\\lib\\site-packages\\numpy\\lib\\_iotools.py',
   'PYMODULE'),
  ('numpy.lib._datasource',
   'C:\\Users\\Student\\AppData\\Local\\Programs\\Python\\Python39\\lib\\site-packages\\numpy\\lib\\_datasource.py',
   'PYMODULE'),
  ('numpy.lib.format',
   'C:\\Users\\Student\\AppData\\Local\\Programs\\Python\\Python39\\lib\\site-packages\\numpy\\lib\\format.py',
   'PYMODULE'),
  ('numpy.lib.arraysetops',
   'C:\\Users\\Student\\AppData\\Local\\Programs\\Python\\Python39\\lib\\site-packages\\numpy\\lib\\arraysetops.py',
   'PYMODULE'),
  ('numpy.lib.utils',
   'C:\\Users\\Student\\AppData\\Local\\Programs\\Python\\Python39\\lib\\site-packages\\numpy\\lib\\utils.py',
   'PYMODULE'),
  ('numpy.lib.polynomial',
   'C:\\Users\\Student\\AppData\\Local\\Programs\\Python\\Python39\\lib\\site-packages\\numpy\\lib\\polynomial.py',
   'PYMODULE'),
  ('numpy.lib.ufunclike',
   'C:\\Users\\Student\\AppData\\Local\\Programs\\Python\\Python39\\lib\\site-packages\\numpy\\lib\\ufunclike.py',
   'PYMODULE'),
  ('numpy.lib.shape_base',
   'C:\\Users\\Student\\AppData\\Local\\Programs\\Python\\Python39\\lib\\site-packages\\numpy\\lib\\shape_base.py',
   'PYMODULE'),
  ('numpy.matrixlib.defmatrix',
   'C:\\Users\\Student\\AppData\\Local\\Programs\\Python\\Python39\\lib\\site-packages\\numpy\\matrixlib\\defmatrix.py',
   'PYMODULE'),
  ('numpy.matrixlib',
   'C:\\Users\\Student\\AppData\\Local\\Programs\\Python\\Python39\\lib\\site-packages\\numpy\\matrixlib\\__init__.py',
   'PYMODULE'),
  ('numpy.lib.index_tricks',
   'C:\\Users\\Student\\AppData\\Local\\Programs\\Python\\Python39\\lib\\site-packages\\numpy\\lib\\index_tricks.py',
   'PYMODULE'),
  ('numpy.lib.type_check',
   'C:\\Users\\Student\\AppData\\Local\\Programs\\Python\\Python39\\lib\\site-packages\\numpy\\lib\\type_check.py',
   'PYMODULE'),
  ('numpy.lib.scimath',
   'C:\\Users\\Student\\AppData\\Local\\Programs\\Python\\Python39\\lib\\site-packages\\numpy\\lib\\scimath.py',
   'PYMODULE'),
  ('numpy.lib.mixins',
   'C:\\Users\\Student\\AppData\\Local\\Programs\\Python\\Python39\\lib\\site-packages\\numpy\\lib\\mixins.py',
   'PYMODULE'),
  ('numpy',
   'C:\\Users\\Student\\AppData\\Local\\Programs\\Python\\Python39\\lib\\site-packages\\numpy\\__init__.py',
   'PYMODULE'),
  ('numpy.ctypeslib',
   'C:\\Users\\Student\\AppData\\Local\\Programs\\Python\\Python39\\lib\\site-packages\\numpy\\ctypeslib.py',
   'PYMODULE'),
  ('numpy.random',
   'C:\\Users\\Student\\AppData\\Local\\Programs\\Python\\Python39\\lib\\site-packages\\numpy\\random\\__init__.py',
   'PYMODULE'),
  ('numpy.random._pickle',
   'C:\\Users\\Student\\AppData\\Local\\Programs\\Python\\Python39\\lib\\site-packages\\numpy\\random\\_pickle.py',
   'PYMODULE'),
  ('numpy.polynomial',
   'C:\\Users\\Student\\AppData\\Local\\Programs\\Python\\Python39\\lib\\site-packages\\numpy\\polynomial\\__init__.py',
   'PYMODULE'),
  ('numpy.polynomial._polybase',
   'C:\\Users\\Student\\AppData\\Local\\Programs\\Python\\Python39\\lib\\site-packages\\numpy\\polynomial\\_polybase.py',
   'PYMODULE'),
  ('numpy.polynomial.laguerre',
   'C:\\Users\\Student\\AppData\\Local\\Programs\\Python\\Python39\\lib\\site-packages\\numpy\\polynomial\\laguerre.py',
   'PYMODULE'),
  ('numpy.polynomial.hermite_e',
   'C:\\Users\\Student\\AppData\\Local\\Programs\\Python\\Python39\\lib\\site-packages\\numpy\\polynomial\\hermite_e.py',
   'PYMODULE'),
  ('numpy.polynomial.hermite',
   'C:\\Users\\Student\\AppData\\Local\\Programs\\Python\\Python39\\lib\\site-packages\\numpy\\polynomial\\hermite.py',
   'PYMODULE'),
  ('numpy.polynomial.legendre',
   'C:\\Users\\Student\\AppData\\Local\\Programs\\Python\\Python39\\lib\\site-packages\\numpy\\polynomial\\legendre.py',
   'PYMODULE'),
  ('numpy.polynomial.chebyshev',
   'C:\\Users\\Student\\AppData\\Local\\Programs\\Python\\Python39\\lib\\site-packages\\numpy\\polynomial\\chebyshev.py',
   'PYMODULE'),
  ('numpy.polynomial.polynomial',
   'C:\\Users\\Student\\AppData\\Local\\Programs\\Python\\Python39\\lib\\site-packages\\numpy\\polynomial\\polynomial.py',
   'PYMODULE'),
  ('numpy.polynomial.polyutils',
   'C:\\Users\\Student\\AppData\\Local\\Programs\\Python\\Python39\\lib\\site-packages\\numpy\\polynomial\\polyutils.py',
   'PYMODULE'),
  ('numpy.fft',
   'C:\\Users\\Student\\AppData\\Local\\Programs\\Python\\Python39\\lib\\site-packages\\numpy\\fft\\__init__.py',
   'PYMODULE'),
  ('numpy.fft.helper',
   'C:\\Users\\Student\\AppData\\Local\\Programs\\Python\\Python39\\lib\\site-packages\\numpy\\fft\\helper.py',
   'PYMODULE'),
  ('numpy.fft._pocketfft',
   'C:\\Users\\Student\\AppData\\Local\\Programs\\Python\\Python39\\lib\\site-packages\\numpy\\fft\\_pocketfft.py',
   'PYMODULE'),
  ('numpy._distributor_init',
   'C:\\Users\\Student\\AppData\\Local\\Programs\\Python\\Python39\\lib\\site-packages\\numpy\\_distributor_init.py',
   'PYMODULE'),
  ('numpy.__config__',
   'C:\\Users\\Student\\AppData\\Local\\Programs\\Python\\Python39\\lib\\site-packages\\numpy\\__config__.py',
   'PYMODULE'),
  ('cv2',
   'C:\\Users\\Student\\AppData\\Local\\Programs\\Python\\Python39\\lib\\site-packages\\cv2\\__init__.py',
   'PYMODULE'),
  ('cv2.version',
   'C:\\Users\\Student\\AppData\\Local\\Programs\\Python\\Python39\\lib\\site-packages\\cv2\\version.py',
   'PYMODULE'),
  ('cv2.data',
   'C:\\Users\\Student\\AppData\\Local\\Programs\\Python\\Python39\\lib\\site-packages\\cv2\\data\\__init__.py',
   'PYMODULE')],
 [('python39.dll',
   'C:\\Users\\Student\\AppData\\Local\\Programs\\Python\\Python39\\python39.dll',
   'BINARY'),
  ('VCRUNTIME140.dll',
   'C:\\Users\\Student\\AppData\\Local\\Programs\\Python\\Python39\\VCRUNTIME140.dll',
   'BINARY'),
  ('cv2\\opencv_videoio_ffmpeg453_64.dll',
   'C:\\Users\\Student\\AppData\\Local\\Programs\\Python\\Python39\\lib\\site-packages\\cv2\\opencv_videoio_ffmpeg453_64.dll',
   'BINARY'),
  ('libopenblas.XWYDX2IKJW2NMTWSFYNGFUWKQU3LYTCZ.gfortran-win_amd64.dll',
   'C:\\Users\\Student\\AppData\\Local\\Programs\\Python\\Python39\\lib\\site-packages\\numpy\\.libs\\libopenblas.XWYDX2IKJW2NMTWSFYNGFUWKQU3LYTCZ.gfortran-win_amd64.dll',
   'BINARY'),
  ('_decimal',
   'C:\\Users\\Student\\AppData\\Local\\Programs\\Python\\Python39\\DLLs\\_decimal.pyd',
   'EXTENSION'),
  ('select',
   'C:\\Users\\Student\\AppData\\Local\\Programs\\Python\\Python39\\DLLs\\select.pyd',
   'EXTENSION'),
  ('_overlapped',
   'C:\\Users\\Student\\AppData\\Local\\Programs\\Python\\Python39\\DLLs\\_overlapped.pyd',
   'EXTENSION'),
  ('_asyncio',
   'C:\\Users\\Student\\AppData\\Local\\Programs\\Python\\Python39\\DLLs\\_asyncio.pyd',
   'EXTENSION'),
  ('_queue',
   'C:\\Users\\Student\\AppData\\Local\\Programs\\Python\\Python39\\DLLs\\_queue.pyd',
   'EXTENSION'),
  ('_ctypes',
   'C:\\Users\\Student\\AppData\\Local\\Programs\\Python\\Python39\\DLLs\\_ctypes.pyd',
   'EXTENSION'),
  ('_multiprocessing',
   'C:\\Users\\Student\\AppData\\Local\\Programs\\Python\\Python39\\DLLs\\_multiprocessing.pyd',
   'EXTENSION'),
  ('pyexpat',
   'C:\\Users\\Student\\AppData\\Local\\Programs\\Python\\Python39\\DLLs\\pyexpat.pyd',
   'EXTENSION'),
  ('unicodedata',
   'C:\\Users\\Student\\AppData\\Local\\Programs\\Python\\Python39\\DLLs\\unicodedata.pyd',
   'EXTENSION'),
  ('_hashlib',
   'C:\\Users\\Student\\AppData\\Local\\Programs\\Python\\Python39\\DLLs\\_hashlib.pyd',
   'EXTENSION'),
  ('_lzma',
   'C:\\Users\\Student\\AppData\\Local\\Programs\\Python\\Python39\\DLLs\\_lzma.pyd',
   'EXTENSION'),
  ('_bz2',
   'C:\\Users\\Student\\AppData\\Local\\Programs\\Python\\Python39\\DLLs\\_bz2.pyd',
   'EXTENSION'),
  ('_socket',
   'C:\\Users\\Student\\AppData\\Local\\Programs\\Python\\Python39\\DLLs\\_socket.pyd',
   'EXTENSION'),
  ('_ssl',
   'C:\\Users\\Student\\AppData\\Local\\Programs\\Python\\Python39\\DLLs\\_ssl.pyd',
   'EXTENSION'),
  ('kociemba.ckociembawrapper',
   'C:\\Users\\Student\\AppData\\Local\\Programs\\Python\\Python39\\lib\\site-packages\\kociemba\\ckociembawrapper.pyd',
   'EXTENSION'),
  ('numpy.core._multiarray_umath',
   'C:\\Users\\Student\\AppData\\Local\\Programs\\Python\\Python39\\lib\\site-packages\\numpy\\core\\_multiarray_umath.cp39-win_amd64.pyd',
   'EXTENSION'),
  ('numpy.core._multiarray_tests',
   'C:\\Users\\Student\\AppData\\Local\\Programs\\Python\\Python39\\lib\\site-packages\\numpy\\core\\_multiarray_tests.cp39-win_amd64.pyd',
   'EXTENSION'),
  ('numpy.linalg.lapack_lite',
   'C:\\Users\\Student\\AppData\\Local\\Programs\\Python\\Python39\\lib\\site-packages\\numpy\\linalg\\lapack_lite.cp39-win_amd64.pyd',
   'EXTENSION'),
  ('numpy.linalg._umath_linalg',
   'C:\\Users\\Student\\AppData\\Local\\Programs\\Python\\Python39\\lib\\site-packages\\numpy\\linalg\\_umath_linalg.cp39-win_amd64.pyd',
   'EXTENSION'),
  ('numpy.random.mtrand',
   'C:\\Users\\Student\\AppData\\Local\\Programs\\Python\\Python39\\lib\\site-packages\\numpy\\random\\mtrand.cp39-win_amd64.pyd',
   'EXTENSION'),
  ('numpy.random._sfc64',
   'C:\\Users\\Student\\AppData\\Local\\Programs\\Python\\Python39\\lib\\site-packages\\numpy\\random\\_sfc64.cp39-win_amd64.pyd',
   'EXTENSION'),
  ('numpy.random._philox',
   'C:\\Users\\Student\\AppData\\Local\\Programs\\Python\\Python39\\lib\\site-packages\\numpy\\random\\_philox.cp39-win_amd64.pyd',
   'EXTENSION'),
  ('numpy.random._pcg64',
   'C:\\Users\\Student\\AppData\\Local\\Programs\\Python\\Python39\\lib\\site-packages\\numpy\\random\\_pcg64.cp39-win_amd64.pyd',
   'EXTENSION'),
  ('numpy.random._mt19937',
   'C:\\Users\\Student\\AppData\\Local\\Programs\\Python\\Python39\\lib\\site-packages\\numpy\\random\\_mt19937.cp39-win_amd64.pyd',
   'EXTENSION'),
  ('numpy.random.bit_generator',
   'C:\\Users\\Student\\AppData\\Local\\Programs\\Python\\Python39\\lib\\site-packages\\numpy\\random\\bit_generator.cp39-win_amd64.pyd',
   'EXTENSION'),
  ('numpy.random._generator',
   'C:\\Users\\Student\\AppData\\Local\\Programs\\Python\\Python39\\lib\\site-packages\\numpy\\random\\_generator.cp39-win_amd64.pyd',
   'EXTENSION'),
  ('numpy.random._bounded_integers',
   'C:\\Users\\Student\\AppData\\Local\\Programs\\Python\\Python39\\lib\\site-packages\\numpy\\random\\_bounded_integers.cp39-win_amd64.pyd',
   'EXTENSION'),
  ('numpy.random._common',
   'C:\\Users\\Student\\AppData\\Local\\Programs\\Python\\Python39\\lib\\site-packages\\numpy\\random\\_common.cp39-win_amd64.pyd',
   'EXTENSION'),
  ('numpy.fft._pocketfft_internal',
   'C:\\Users\\Student\\AppData\\Local\\Programs\\Python\\Python39\\lib\\site-packages\\numpy\\fft\\_pocketfft_internal.cp39-win_amd64.pyd',
   'EXTENSION'),
  ('cv2.cv2',
   'C:\\Users\\Student\\AppData\\Local\\Programs\\Python\\Python39\\lib\\site-packages\\cv2\\cv2.cp39-win_amd64.pyd',
   'EXTENSION'),
  ('libffi-7.dll',
   'C:\\Users\\Student\\AppData\\Local\\Programs\\Python\\Python39\\DLLs\\libffi-7.dll',
   'BINARY'),
  ('libcrypto-1_1.dll',
   'C:\\Users\\Student\\AppData\\Local\\Programs\\Python\\Python39\\DLLs\\libcrypto-1_1.dll',
   'BINARY'),
  ('libssl-1_1.dll',
   'C:\\Users\\Student\\AppData\\Local\\Programs\\Python\\Python39\\DLLs\\libssl-1_1.dll',
   'BINARY'),
  ('python3.dll',
   'C:\\Users\\Student\\AppData\\Local\\Programs\\Python\\Python39\\python3.dll',
   'BINARY')],
 [],
 [],
 [('base_library.zip',
   'C:\\Users\\Student\\Desktop\\Ivan_Z\\Rubik\\GitPush\\build\\cubenew\\base_library.zip',
   'DATA'),
  ('certifi\\cacert.pem',
   'C:\\Users\\Student\\AppData\\Local\\Programs\\Python\\Python39\\lib\\site-packages\\certifi\\cacert.pem',
   'DATA'),
  ('altgraph-0.17.2.dist-info\\LICENSE',
   'c:\\users\\student\\appdata\\local\\programs\\python\\python39\\lib\\site-packages\\altgraph-0.17.2.dist-info\\LICENSE',
   'DATA'),
  ('setuptools-57.4.0.dist-info\\WHEEL',
   'c:\\users\\student\\appdata\\local\\programs\\python\\python39\\lib\\site-packages\\setuptools-57.4.0.dist-info\\WHEEL',
   'DATA'),
  ('pyinstaller-4.5.1.dist-info\\entry_points.txt',
   'c:\\users\\student\\appdata\\local\\programs\\python\\python39\\lib\\site-packages\\pyinstaller-4.5.1.dist-info\\entry_points.txt',
   'DATA'),
  ('altgraph-0.17.2.dist-info\\METADATA',
   'c:\\users\\student\\appdata\\local\\programs\\python\\python39\\lib\\site-packages\\altgraph-0.17.2.dist-info\\METADATA',
   'DATA'),
  ('altgraph-0.17.2.dist-info\\WHEEL',
   'c:\\users\\student\\appdata\\local\\programs\\python\\python39\\lib\\site-packages\\altgraph-0.17.2.dist-info\\WHEEL',
   'DATA'),
  ('pyinstaller-4.5.1.dist-info\\WHEEL',
   'c:\\users\\student\\appdata\\local\\programs\\python\\python39\\lib\\site-packages\\pyinstaller-4.5.1.dist-info\\WHEEL',
   'DATA'),
  ('altgraph-0.17.2.dist-info\\top_level.txt',
   'c:\\users\\student\\appdata\\local\\programs\\python\\python39\\lib\\site-packages\\altgraph-0.17.2.dist-info\\top_level.txt',
   'DATA'),
  ('pyinstaller-4.5.1.dist-info\\top_level.txt',
   'c:\\users\\student\\appdata\\local\\programs\\python\\python39\\lib\\site-packages\\pyinstaller-4.5.1.dist-info\\top_level.txt',
   'DATA'),
  ('setuptools-57.4.0.dist-info\\METADATA',
   'c:\\users\\student\\appdata\\local\\programs\\python\\python39\\lib\\site-packages\\setuptools-57.4.0.dist-info\\METADATA',
   'DATA'),
  ('setuptools-57.4.0.dist-info\\REQUESTED',
   'c:\\users\\student\\appdata\\local\\programs\\python\\python39\\lib\\site-packages\\setuptools-57.4.0.dist-info\\REQUESTED',
   'DATA'),
  ('pyinstaller-4.5.1.dist-info\\INSTALLER',
   'c:\\users\\student\\appdata\\local\\programs\\python\\python39\\lib\\site-packages\\pyinstaller-4.5.1.dist-info\\INSTALLER',
   'DATA'),
  ('setuptools-57.4.0.dist-info\\entry_points.txt',
   'c:\\users\\student\\appdata\\local\\programs\\python\\python39\\lib\\site-packages\\setuptools-57.4.0.dist-info\\entry_points.txt',
   'DATA'),
  ('altgraph-0.17.2.dist-info\\RECORD',
   'c:\\users\\student\\appdata\\local\\programs\\python\\python39\\lib\\site-packages\\altgraph-0.17.2.dist-info\\RECORD',
   'DATA'),
  ('setuptools-57.4.0.dist-info\\INSTALLER',
   'c:\\users\\student\\appdata\\local\\programs\\python\\python39\\lib\\site-packages\\setuptools-57.4.0.dist-info\\INSTALLER',
   'DATA'),
  ('pyinstaller-4.5.1.dist-info\\COPYING.txt',
   'c:\\users\\student\\appdata\\local\\programs\\python\\python39\\lib\\site-packages\\pyinstaller-4.5.1.dist-info\\COPYING.txt',
   'DATA'),
  ('altgraph-0.17.2.dist-info\\zip-safe',
   'c:\\users\\student\\appdata\\local\\programs\\python\\python39\\lib\\site-packages\\altgraph-0.17.2.dist-info\\zip-safe',
   'DATA'),
  ('pyinstaller-4.5.1.dist-info\\METADATA',
   'c:\\users\\student\\appdata\\local\\programs\\python\\python39\\lib\\site-packages\\pyinstaller-4.5.1.dist-info\\METADATA',
   'DATA'),
  ('pyinstaller-4.5.1.dist-info\\RECORD',
   'c:\\users\\student\\appdata\\local\\programs\\python\\python39\\lib\\site-packages\\pyinstaller-4.5.1.dist-info\\RECORD',
   'DATA'),
  ('pyinstaller-4.5.1.dist-info\\REQUESTED',
   'c:\\users\\student\\appdata\\local\\programs\\python\\python39\\lib\\site-packages\\pyinstaller-4.5.1.dist-info\\REQUESTED',
   'DATA'),
  ('setuptools-57.4.0.dist-info\\top_level.txt',
   'c:\\users\\student\\appdata\\local\\programs\\python\\python39\\lib\\site-packages\\setuptools-57.4.0.dist-info\\top_level.txt',
   'DATA'),
  ('setuptools-57.4.0.dist-info\\RECORD',
   'c:\\users\\student\\appdata\\local\\programs\\python\\python39\\lib\\site-packages\\setuptools-57.4.0.dist-info\\RECORD',
   'DATA'),
  ('setuptools-57.4.0.dist-info\\LICENSE',
   'c:\\users\\student\\appdata\\local\\programs\\python\\python39\\lib\\site-packages\\setuptools-57.4.0.dist-info\\LICENSE',
   'DATA'),
  ('altgraph-0.17.2.dist-info\\INSTALLER',
   'c:\\users\\student\\appdata\\local\\programs\\python\\python39\\lib\\site-packages\\altgraph-0.17.2.dist-info\\INSTALLER',
   'DATA')],
 [])
