([('cubenew.exe',
   'C:\\Users\\Student\\Desktop\\Ivan_Z\\Rubik\\GitPush\\build\\cubenew\\cubenew.exe',
   'EXECUTABLE'),
  ('cubenew.exe.manifest',
   'C:\\Users\\Student\\Desktop\\Ivan_Z\\Rubik\\GitPush\\build\\cubenew\\cubenew.exe.manifest',
   'BINARY'),
  ('python39.dll',
   'C:\\Users\\Student\\AppData\\Local\\Programs\\Python\\Python39\\python39.dll',
   'BINARY'),
  ('VCRUNTIME140.dll',
   'C:\\Users\\Student\\AppData\\Local\\Programs\\Python\\Python39\\VCRUNTIME140.dll',
   'BINARY'),
  ('cv2\\opencv_videoio_ffmpeg453_64.dll',
   'C:\\Users\\Student\\AppData\\Local\\Programs\\Python\\Python39\\lib\\site-packages\\cv2\\opencv_videoio_ffmpeg453_64.dll',
   'BINARY'),
  ('libopenblas.XWYDX2IKJW2NMTWSFYNGFUWKQU3LYTCZ.gfortran-win_amd64.dll',
   'C:\\Users\\Student\\AppData\\Local\\Programs\\Python\\Python39\\lib\\site-packages\\numpy\\.libs\\libopenblas.XWYDX2IKJW2NMTWSFYNGFUWKQU3LYTCZ.gfortran-win_amd64.dll',
   'BINARY'),
  ('_decimal',
   'C:\\Users\\Student\\AppData\\Local\\Programs\\Python\\Python39\\DLLs\\_decimal.pyd',
   'EXTENSION'),
  ('select',
   'C:\\Users\\Student\\AppData\\Local\\Programs\\Python\\Python39\\DLLs\\select.pyd',
   'EXTENSION'),
  ('_overlapped',
   'C:\\Users\\Student\\AppData\\Local\\Programs\\Python\\Python39\\DLLs\\_overlapped.pyd',
   'EXTENSION'),
  ('_asyncio',
   'C:\\Users\\Student\\AppData\\Local\\Programs\\Python\\Python39\\DLLs\\_asyncio.pyd',
   'EXTENSION'),
  ('_queue',
   'C:\\Users\\Student\\AppData\\Local\\Programs\\Python\\Python39\\DLLs\\_queue.pyd',
   'EXTENSION'),
  ('_ctypes',
   'C:\\Users\\Student\\AppData\\Local\\Programs\\Python\\Python39\\DLLs\\_ctypes.pyd',
   'EXTENSION'),
  ('_multiprocessing',
   'C:\\Users\\Student\\AppData\\Local\\Programs\\Python\\Python39\\DLLs\\_multiprocessing.pyd',
   'EXTENSION'),
  ('pyexpat',
   'C:\\Users\\Student\\AppData\\Local\\Programs\\Python\\Python39\\DLLs\\pyexpat.pyd',
   'EXTENSION'),
  ('unicodedata',
   'C:\\Users\\Student\\AppData\\Local\\Programs\\Python\\Python39\\DLLs\\unicodedata.pyd',
   'EXTENSION'),
  ('_hashlib',
   'C:\\Users\\Student\\AppData\\Local\\Programs\\Python\\Python39\\DLLs\\_hashlib.pyd',
   'EXTENSION'),
  ('_lzma',
   'C:\\Users\\Student\\AppData\\Local\\Programs\\Python\\Python39\\DLLs\\_lzma.pyd',
   'EXTENSION'),
  ('_bz2',
   'C:\\Users\\Student\\AppData\\Local\\Programs\\Python\\Python39\\DLLs\\_bz2.pyd',
   'EXTENSION'),
  ('_socket',
   'C:\\Users\\Student\\AppData\\Local\\Programs\\Python\\Python39\\DLLs\\_socket.pyd',
   'EXTENSION'),
  ('_ssl',
   'C:\\Users\\Student\\AppData\\Local\\Programs\\Python\\Python39\\DLLs\\_ssl.pyd',
   'EXTENSION'),
  ('kociemba.ckociembawrapper',
   'C:\\Users\\Student\\AppData\\Local\\Programs\\Python\\Python39\\lib\\site-packages\\kociemba\\ckociembawrapper.pyd',
   'EXTENSION'),
  ('numpy.core._multiarray_umath',
   'C:\\Users\\Student\\AppData\\Local\\Programs\\Python\\Python39\\lib\\site-packages\\numpy\\core\\_multiarray_umath.cp39-win_amd64.pyd',
   'EXTENSION'),
  ('numpy.core._multiarray_tests',
   'C:\\Users\\Student\\AppData\\Local\\Programs\\Python\\Python39\\lib\\site-packages\\numpy\\core\\_multiarray_tests.cp39-win_amd64.pyd',
   'EXTENSION'),
  ('numpy.linalg.lapack_lite',
   'C:\\Users\\Student\\AppData\\Local\\Programs\\Python\\Python39\\lib\\site-packages\\numpy\\linalg\\lapack_lite.cp39-win_amd64.pyd',
   'EXTENSION'),
  ('numpy.linalg._umath_linalg',
   'C:\\Users\\Student\\AppData\\Local\\Programs\\Python\\Python39\\lib\\site-packages\\numpy\\linalg\\_umath_linalg.cp39-win_amd64.pyd',
   'EXTENSION'),
  ('numpy.random.mtrand',
   'C:\\Users\\Student\\AppData\\Local\\Programs\\Python\\Python39\\lib\\site-packages\\numpy\\random\\mtrand.cp39-win_amd64.pyd',
   'EXTENSION'),
  ('numpy.random._sfc64',
   'C:\\Users\\Student\\AppData\\Local\\Programs\\Python\\Python39\\lib\\site-packages\\numpy\\random\\_sfc64.cp39-win_amd64.pyd',
   'EXTENSION'),
  ('numpy.random._philox',
   'C:\\Users\\Student\\AppData\\Local\\Programs\\Python\\Python39\\lib\\site-packages\\numpy\\random\\_philox.cp39-win_amd64.pyd',
   'EXTENSION'),
  ('numpy.random._pcg64',
   'C:\\Users\\Student\\AppData\\Local\\Programs\\Python\\Python39\\lib\\site-packages\\numpy\\random\\_pcg64.cp39-win_amd64.pyd',
   'EXTENSION'),
  ('numpy.random._mt19937',
   'C:\\Users\\Student\\AppData\\Local\\Programs\\Python\\Python39\\lib\\site-packages\\numpy\\random\\_mt19937.cp39-win_amd64.pyd',
   'EXTENSION'),
  ('numpy.random.bit_generator',
   'C:\\Users\\Student\\AppData\\Local\\Programs\\Python\\Python39\\lib\\site-packages\\numpy\\random\\bit_generator.cp39-win_amd64.pyd',
   'EXTENSION'),
  ('numpy.random._generator',
   'C:\\Users\\Student\\AppData\\Local\\Programs\\Python\\Python39\\lib\\site-packages\\numpy\\random\\_generator.cp39-win_amd64.pyd',
   'EXTENSION'),
  ('numpy.random._bounded_integers',
   'C:\\Users\\Student\\AppData\\Local\\Programs\\Python\\Python39\\lib\\site-packages\\numpy\\random\\_bounded_integers.cp39-win_amd64.pyd',
   'EXTENSION'),
  ('numpy.random._common',
   'C:\\Users\\Student\\AppData\\Local\\Programs\\Python\\Python39\\lib\\site-packages\\numpy\\random\\_common.cp39-win_amd64.pyd',
   'EXTENSION'),
  ('numpy.fft._pocketfft_internal',
   'C:\\Users\\Student\\AppData\\Local\\Programs\\Python\\Python39\\lib\\site-packages\\numpy\\fft\\_pocketfft_internal.cp39-win_amd64.pyd',
   'EXTENSION'),
  ('cv2.cv2',
   'C:\\Users\\Student\\AppData\\Local\\Programs\\Python\\Python39\\lib\\site-packages\\cv2\\cv2.cp39-win_amd64.pyd',
   'EXTENSION'),
  ('libffi-7.dll',
   'C:\\Users\\Student\\AppData\\Local\\Programs\\Python\\Python39\\DLLs\\libffi-7.dll',
   'BINARY'),
  ('libcrypto-1_1.dll',
   'C:\\Users\\Student\\AppData\\Local\\Programs\\Python\\Python39\\DLLs\\libcrypto-1_1.dll',
   'BINARY'),
  ('libssl-1_1.dll',
   'C:\\Users\\Student\\AppData\\Local\\Programs\\Python\\Python39\\DLLs\\libssl-1_1.dll',
   'BINARY'),
  ('python3.dll',
   'C:\\Users\\Student\\AppData\\Local\\Programs\\Python\\Python39\\python3.dll',
   'BINARY'),
  ('base_library.zip',
   'C:\\Users\\Student\\Desktop\\Ivan_Z\\Rubik\\GitPush\\build\\cubenew\\base_library.zip',
   'DATA'),
  ('certifi\\cacert.pem',
   'C:\\Users\\Student\\AppData\\Local\\Programs\\Python\\Python39\\lib\\site-packages\\certifi\\cacert.pem',
   'DATA'),
  ('altgraph-0.17.2.dist-info\\LICENSE',
   'c:\\users\\student\\appdata\\local\\programs\\python\\python39\\lib\\site-packages\\altgraph-0.17.2.dist-info\\LICENSE',
   'DATA'),
  ('setuptools-57.4.0.dist-info\\WHEEL',
   'c:\\users\\student\\appdata\\local\\programs\\python\\python39\\lib\\site-packages\\setuptools-57.4.0.dist-info\\WHEEL',
   'DATA'),
  ('pyinstaller-4.5.1.dist-info\\entry_points.txt',
   'c:\\users\\student\\appdata\\local\\programs\\python\\python39\\lib\\site-packages\\pyinstaller-4.5.1.dist-info\\entry_points.txt',
   'DATA'),
  ('altgraph-0.17.2.dist-info\\METADATA',
   'c:\\users\\student\\appdata\\local\\programs\\python\\python39\\lib\\site-packages\\altgraph-0.17.2.dist-info\\METADATA',
   'DATA'),
  ('altgraph-0.17.2.dist-info\\WHEEL',
   'c:\\users\\student\\appdata\\local\\programs\\python\\python39\\lib\\site-packages\\altgraph-0.17.2.dist-info\\WHEEL',
   'DATA'),
  ('pyinstaller-4.5.1.dist-info\\WHEEL',
   'c:\\users\\student\\appdata\\local\\programs\\python\\python39\\lib\\site-packages\\pyinstaller-4.5.1.dist-info\\WHEEL',
   'DATA'),
  ('altgraph-0.17.2.dist-info\\top_level.txt',
   'c:\\users\\student\\appdata\\local\\programs\\python\\python39\\lib\\site-packages\\altgraph-0.17.2.dist-info\\top_level.txt',
   'DATA'),
  ('pyinstaller-4.5.1.dist-info\\top_level.txt',
   'c:\\users\\student\\appdata\\local\\programs\\python\\python39\\lib\\site-packages\\pyinstaller-4.5.1.dist-info\\top_level.txt',
   'DATA'),
  ('setuptools-57.4.0.dist-info\\METADATA',
   'c:\\users\\student\\appdata\\local\\programs\\python\\python39\\lib\\site-packages\\setuptools-57.4.0.dist-info\\METADATA',
   'DATA'),
  ('setuptools-57.4.0.dist-info\\REQUESTED',
   'c:\\users\\student\\appdata\\local\\programs\\python\\python39\\lib\\site-packages\\setuptools-57.4.0.dist-info\\REQUESTED',
   'DATA'),
  ('pyinstaller-4.5.1.dist-info\\INSTALLER',
   'c:\\users\\student\\appdata\\local\\programs\\python\\python39\\lib\\site-packages\\pyinstaller-4.5.1.dist-info\\INSTALLER',
   'DATA'),
  ('setuptools-57.4.0.dist-info\\entry_points.txt',
   'c:\\users\\student\\appdata\\local\\programs\\python\\python39\\lib\\site-packages\\setuptools-57.4.0.dist-info\\entry_points.txt',
   'DATA'),
  ('altgraph-0.17.2.dist-info\\RECORD',
   'c:\\users\\student\\appdata\\local\\programs\\python\\python39\\lib\\site-packages\\altgraph-0.17.2.dist-info\\RECORD',
   'DATA'),
  ('setuptools-57.4.0.dist-info\\INSTALLER',
   'c:\\users\\student\\appdata\\local\\programs\\python\\python39\\lib\\site-packages\\setuptools-57.4.0.dist-info\\INSTALLER',
   'DATA'),
  ('pyinstaller-4.5.1.dist-info\\COPYING.txt',
   'c:\\users\\student\\appdata\\local\\programs\\python\\python39\\lib\\site-packages\\pyinstaller-4.5.1.dist-info\\COPYING.txt',
   'DATA'),
  ('altgraph-0.17.2.dist-info\\zip-safe',
   'c:\\users\\student\\appdata\\local\\programs\\python\\python39\\lib\\site-packages\\altgraph-0.17.2.dist-info\\zip-safe',
   'DATA'),
  ('pyinstaller-4.5.1.dist-info\\METADATA',
   'c:\\users\\student\\appdata\\local\\programs\\python\\python39\\lib\\site-packages\\pyinstaller-4.5.1.dist-info\\METADATA',
   'DATA'),
  ('pyinstaller-4.5.1.dist-info\\RECORD',
   'c:\\users\\student\\appdata\\local\\programs\\python\\python39\\lib\\site-packages\\pyinstaller-4.5.1.dist-info\\RECORD',
   'DATA'),
  ('pyinstaller-4.5.1.dist-info\\REQUESTED',
   'c:\\users\\student\\appdata\\local\\programs\\python\\python39\\lib\\site-packages\\pyinstaller-4.5.1.dist-info\\REQUESTED',
   'DATA'),
  ('setuptools-57.4.0.dist-info\\top_level.txt',
   'c:\\users\\student\\appdata\\local\\programs\\python\\python39\\lib\\site-packages\\setuptools-57.4.0.dist-info\\top_level.txt',
   'DATA'),
  ('setuptools-57.4.0.dist-info\\RECORD',
   'c:\\users\\student\\appdata\\local\\programs\\python\\python39\\lib\\site-packages\\setuptools-57.4.0.dist-info\\RECORD',
   'DATA'),
  ('setuptools-57.4.0.dist-info\\LICENSE',
   'c:\\users\\student\\appdata\\local\\programs\\python\\python39\\lib\\site-packages\\setuptools-57.4.0.dist-info\\LICENSE',
   'DATA'),
  ('altgraph-0.17.2.dist-info\\INSTALLER',
   'c:\\users\\student\\appdata\\local\\programs\\python\\python39\\lib\\site-packages\\altgraph-0.17.2.dist-info\\INSTALLER',
   'DATA')],)
