('C:\\Users\\Student\\Desktop\\Ivan_Z\\Rubik\\GitPush\\build\\cubenew\\PKG-00.pkg',
 {'BINARY': 1,
  'DATA': 1,
  'EXECUTABLE': 1,
  'EXTENSION': 1,
  'PYMODULE': 1,
  'PYSOURCE': 1,
  'PYZ': 0,
  'SPLASH': 1},
 [('PYZ-00.pyz',
   'C:\\Users\\Student\\Desktop\\Ivan_Z\\Rubik\\GitPush\\build\\cubenew\\PYZ-00.pyz',
   'PYZ'),
  ('struct',
   'C:\\Users\\Student\\AppData\\Local\\Programs\\Python\\Python39\\lib\\struct.pyo',
   'PYMODULE'),
  ('pyimod01_os_path',
   'C:\\Users\\Student\\AppData\\Local\\Programs\\Python\\Python39\\lib\\site-packages\\PyInstaller\\loader\\pyimod01_os_path.pyc',
   'PYMODULE'),
  ('pyimod02_archive',
   'C:\\Users\\Student\\AppData\\Local\\Programs\\Python\\Python39\\lib\\site-packages\\PyInstaller\\loader\\pyimod02_archive.pyc',
   'PYMODULE'),
  ('pyimod03_importers',
   'C:\\Users\\Student\\AppData\\Local\\Programs\\Python\\Python39\\lib\\site-packages\\PyInstaller\\loader\\pyimod03_importers.pyc',
   'PYMODULE'),
  ('pyimod04_ctypes',
   'C:\\Users\\Student\\AppData\\Local\\Programs\\Python\\Python39\\lib\\site-packages\\PyInstaller\\loader\\pyimod04_ctypes.pyc',
   'PYMODULE'),
  ('pyiboot01_bootstrap',
   'C:\\Users\\Student\\AppData\\Local\\Programs\\Python\\Python39\\lib\\site-packages\\PyInstaller\\loader\\pyiboot01_bootstrap.py',
   'PYSOURCE'),
  ('pyi_rth_pkgutil',
   'C:\\Users\\Student\\AppData\\Local\\Programs\\Python\\Python39\\Lib\\site-packages\\PyInstaller\\hooks\\rthooks\\pyi_rth_pkgutil.py',
   'PYSOURCE'),
  ('pyi_rth_multiprocessing',
   'C:\\Users\\Student\\AppData\\Local\\Programs\\Python\\Python39\\Lib\\site-packages\\PyInstaller\\hooks\\rthooks\\pyi_rth_multiprocessing.py',
   'PYSOURCE'),
  ('pyi_rth_inspect',
   'C:\\Users\\Student\\AppData\\Local\\Programs\\Python\\Python39\\Lib\\site-packages\\PyInstaller\\hooks\\rthooks\\pyi_rth_inspect.py',
   'PYSOURCE'),
  ('pyi_rth_certifi',
   'C:\\Users\\Student\\AppData\\Local\\Programs\\Python\\Python39\\Lib\\site-packages\\_pyinstaller_hooks_contrib\\hooks\\rthooks\\pyi_rth_certifi.py',
   'PYSOURCE'),
  ('cubenew',
   'C:\\Users\\Student\\Desktop\\Ivan_Z\\Rubik\\GitPush\\cubenew.py',
   'PYSOURCE'),
  ('cubenew.exe.manifest',
   'C:\\Users\\Student\\Desktop\\Ivan_Z\\Rubik\\GitPush\\build\\cubenew\\cubenew.exe.manifest',
   'BINARY')],
 True,
 False,
 False,
 [],
 None,
 None,
 None)
